Index:0, Earliness:620, Tardiness:1805, Setup:1363, AOF:3788
Index:1, Earliness:870, Tardiness:1459, Setup:1487, AOF:3816
Index:2, Earliness:855, Tardiness:1624, Setup:1337, AOF:3816
Index:3, Earliness:671, Tardiness:1894, Setup:1460, AOF:4025
Index:4, Earliness:818, Tardiness:1466, Setup:1361, AOF:3645
Index:5, Earliness:836, Tardiness:1420, Setup:1442, AOF:3698
Index:6, Earliness:664, Tardiness:1834, Setup:1341, AOF:3839
Index:7, Earliness:814, Tardiness:1639, Setup:1516, AOF:3969
Index:8, Earliness:864, Tardiness:1671, Setup:1379, AOF:3914
Index:9, Earliness:900, Tardiness:1610, Setup:1392, AOF:3902
Index:10, Earliness:826, Tardiness:1957, Setup:1399, AOF:4182
Index:11, Earliness:824, Tardiness:1674, Setup:1384, AOF:3882
Index:12, Earliness:817, Tardiness:1337, Setup:1428, AOF:3582
Index:13, Earliness:793, Tardiness:1615, Setup:1458, AOF:3866
Index:14, Earliness:1065, Tardiness:1666, Setup:1396, AOF:4127
Index:15, Earliness:838, Tardiness:1496, Setup:1385, AOF:3719
Index:16, Earliness:850, Tardiness:1669, Setup:1470, AOF:3989
Index:17, Earliness:805, Tardiness:1804, Setup:1287, AOF:3896
Index:18, Earliness:922, Tardiness:1852, Setup:1368, AOF:4142
Index:19, Earliness:745, Tardiness:1363, Setup:1448, AOF:3556
Index:20, Earliness:899, Tardiness:1436, Setup:1293, AOF:3628
Index:21, Earliness:522, Tardiness:2051, Setup:1464, AOF:4037
Index:22, Earliness:698, Tardiness:1794, Setup:1251, AOF:3743
Index:23, Earliness:863, Tardiness:1186, Setup:1429, AOF:3478
Index:24, Earliness:759, Tardiness:1546, Setup:1340, AOF:3645
Index:25, Earliness:878, Tardiness:1875, Setup:1317, AOF:4070
Index:26, Earliness:903, Tardiness:1649, Setup:1304, AOF:3856
Index:27, Earliness:953, Tardiness:1246, Setup:1431, AOF:3630
Index:28, Earliness:912, Tardiness:1748, Setup:1387, AOF:4047
Index:29, Earliness:1052, Tardiness:1383, Setup:1390, AOF:3825
Index:30, Earliness:808, Tardiness:1537, Setup:1412, AOF:3757
Index:31, Earliness:573, Tardiness:1840, Setup:1468, AOF:3881
Index:32, Earliness:684, Tardiness:2008, Setup:1417, AOF:4109
Index:33, Earliness:885, Tardiness:1675, Setup:1358, AOF:3918
Index:34, Earliness:745, Tardiness:1729, Setup:1419, AOF:3893
Index:35, Earliness:782, Tardiness:1378, Setup:1469, AOF:3629
Index:36, Earliness:748, Tardiness:1576, Setup:1403, AOF:3727
Index:37, Earliness:770, Tardiness:1788, Setup:1352, AOF:3910
Index:38, Earliness:812, Tardiness:1648, Setup:1453, AOF:3913
Index:39, Earliness:770, Tardiness:1515, Setup:1454, AOF:3739
Index:40, Earliness:703, Tardiness:1758, Setup:1425, AOF:3886
Index:41, Earliness:1147, Tardiness:1410, Setup:1367, AOF:3924
Index:42, Earliness:710, Tardiness:1716, Setup:1367, AOF:3793
Index:43, Earliness:672, Tardiness:1721, Setup:1339, AOF:3732
Index:44, Earliness:1058, Tardiness:1238, Setup:1413, AOF:3709
Index:45, Earliness:730, Tardiness:1533, Setup:1415, AOF:3678
Index:46, Earliness:981, Tardiness:1424, Setup:1454, AOF:3859
Index:47, Earliness:803, Tardiness:1971, Setup:1371, AOF:4145
Index:48, Earliness:735, Tardiness:1636, Setup:1341, AOF:3712
Index:49, Earliness:706, Tardiness:1963, Setup:1334, AOF:4003
Index:50, Earliness:979, Tardiness:1437, Setup:1338, AOF:3754
Index:51, Earliness:875, Tardiness:1453, Setup:1466, AOF:3794
Index:52, Earliness:951, Tardiness:1445, Setup:1420, AOF:3816
Index:53, Earliness:820, Tardiness:1522, Setup:1262, AOF:3604
Index:54, Earliness:715, Tardiness:1916, Setup:1522, AOF:4153
Index:55, Earliness:888, Tardiness:1318, Setup:1367, AOF:3573
Index:56, Earliness:848, Tardiness:1994, Setup:1428, AOF:4270
Index:57, Earliness:532, Tardiness:1811, Setup:1480, AOF:3823
Index:58, Earliness:772, Tardiness:1341, Setup:1515, AOF:3628
Index:59, Earliness:934, Tardiness:1461, Setup:1385, AOF:3780
Index:60, Earliness:875, Tardiness:1535, Setup:1372, AOF:3782
Index:61, Earliness:989, Tardiness:1517, Setup:1358, AOF:3864
Index:62, Earliness:946, Tardiness:1414, Setup:1436, AOF:3796
Index:63, Earliness:717, Tardiness:1821, Setup:1480, AOF:4018
Index:64, Earliness:741, Tardiness:1599, Setup:1350, AOF:3690
Index:65, Earliness:805, Tardiness:1765, Setup:1424, AOF:3994
Index:66, Earliness:889, Tardiness:1412, Setup:1329, AOF:3630
Index:67, Earliness:636, Tardiness:1642, Setup:1459, AOF:3737
Index:68, Earliness:627, Tardiness:1567, Setup:1516, AOF:3710
Index:69, Earliness:782, Tardiness:1777, Setup:1437, AOF:3996
Index:70, Earliness:815, Tardiness:1620, Setup:1395, AOF:3830
Index:71, Earliness:739, Tardiness:1468, Setup:1440, AOF:3647
Index:72, Earliness:898, Tardiness:1662, Setup:1312, AOF:3872
Index:73, Earliness:804, Tardiness:1380, Setup:1421, AOF:3605
Index:74, Earliness:809, Tardiness:1434, Setup:1456, AOF:3699
Index:75, Earliness:700, Tardiness:1770, Setup:1413, AOF:3883
Index:76, Earliness:1009, Tardiness:1682, Setup:1393, AOF:4084
Index:77, Earliness:732, Tardiness:1448, Setup:1425, AOF:3605
Index:78, Earliness:962, Tardiness:1359, Setup:1471, AOF:3792
Index:79, Earliness:780, Tardiness:1583, Setup:1401, AOF:3764
Index:80, Earliness:742, Tardiness:2312, Setup:1385, AOF:4439
Index:81, Earliness:647, Tardiness:1536, Setup:1498, AOF:3681
Index:82, Earliness:900, Tardiness:1300, Setup:1383, AOF:3583
Index:83, Earliness:879, Tardiness:1496, Setup:1283, AOF:3658
Index:84, Earliness:999, Tardiness:1448, Setup:1464, AOF:3911
Index:85, Earliness:791, Tardiness:1543, Setup:1407, AOF:3741
Index:86, Earliness:913, Tardiness:1771, Setup:1324, AOF:4008
Index:87, Earliness:829, Tardiness:1357, Setup:1381, AOF:3567
Index:88, Earliness:711, Tardiness:1620, Setup:1383, AOF:3714
Index:89, Earliness:1036, Tardiness:1624, Setup:1392, AOF:4052
Index:90, Earliness:684, Tardiness:1538, Setup:1348, AOF:3570
Index:91, Earliness:1088, Tardiness:1203, Setup:1522, AOF:3813
Index:92, Earliness:765, Tardiness:1279, Setup:1393, AOF:3437
Index:93, Earliness:991, Tardiness:1743, Setup:1416, AOF:4150
Index:94, Earliness:598, Tardiness:1643, Setup:1385, AOF:3626
Index:95, Earliness:780, Tardiness:1721, Setup:1368, AOF:3869
Index:96, Earliness:746, Tardiness:1604, Setup:1448, AOF:3798
Index:97, Earliness:675, Tardiness:1893, Setup:1361, AOF:3929
Index:98, Earliness:999, Tardiness:1343, Setup:1371, AOF:3713
Index:99, Earliness:776, Tardiness:1641, Setup:1490, AOF:3907
Index:100, Earliness:905, Tardiness:1291, Setup:1411, AOF:3607
Index:101, Earliness:812, Tardiness:1695, Setup:1310, AOF:3817
Index:102, Earliness:864, Tardiness:1415, Setup:1505, AOF:3784
Index:103, Earliness:913, Tardiness:1383, Setup:1490, AOF:3786
Index:104, Earliness:570, Tardiness:1896, Setup:1449, AOF:3915
Index:105, Earliness:974, Tardiness:1496, Setup:1337, AOF:3807
Index:106, Earliness:884, Tardiness:1497, Setup:1347, AOF:3728
Index:107, Earliness:896, Tardiness:1242, Setup:1375, AOF:3513
Index:108, Earliness:574, Tardiness:1999, Setup:1317, AOF:3890
Index:109, Earliness:683, Tardiness:1521, Setup:1436, AOF:3640
Index:110, Earliness:721, Tardiness:1712, Setup:1343, AOF:3776
Index:111, Earliness:690, Tardiness:1659, Setup:1420, AOF:3769
Index:112, Earliness:749, Tardiness:1630, Setup:1457, AOF:3836
Index:113, Earliness:888, Tardiness:1618, Setup:1352, AOF:3858
Index:114, Earliness:705, Tardiness:1724, Setup:1337, AOF:3766
Index:115, Earliness:701, Tardiness:1631, Setup:1422, AOF:3754
Index:116, Earliness:707, Tardiness:1584, Setup:1443, AOF:3734
Index:117, Earliness:803, Tardiness:1369, Setup:1431, AOF:3603
Index:118, Earliness:776, Tardiness:1463, Setup:1441, AOF:3680
Index:119, Earliness:782, Tardiness:1520, Setup:1530, AOF:3832
Index:120, Earliness:883, Tardiness:1511, Setup:1418, AOF:3812
Index:121, Earliness:844, Tardiness:1617, Setup:1415, AOF:3876
Index:122, Earliness:796, Tardiness:1626, Setup:1358, AOF:3780
Index:123, Earliness:906, Tardiness:1130, Setup:1516, AOF:3552
Index:124, Earliness:718, Tardiness:1529, Setup:1414, AOF:3661
Index:125, Earliness:649, Tardiness:1653, Setup:1428, AOF:3730
Index:126, Earliness:1006, Tardiness:1439, Setup:1478, AOF:3923
Index:127, Earliness:599, Tardiness:1592, Setup:1425, AOF:3616
Index:128, Earliness:892, Tardiness:1523, Setup:1394, AOF:3809
Index:129, Earliness:886, Tardiness:1457, Setup:1336, AOF:3679
Index:130, Earliness:711, Tardiness:1623, Setup:1417, AOF:3751
Index:131, Earliness:681, Tardiness:1491, Setup:1456, AOF:3628
Index:132, Earliness:947, Tardiness:1280, Setup:1393, AOF:3620
Index:133, Earliness:1110, Tardiness:1340, Setup:1369, AOF:3819
Index:134, Earliness:766, Tardiness:1806, Setup:1278, AOF:3850
Index:135, Earliness:908, Tardiness:1464, Setup:1471, AOF:3843
Index:136, Earliness:602, Tardiness:1751, Setup:1397, AOF:3750
Index:137, Earliness:904, Tardiness:1476, Setup:1353, AOF:3733
Index:138, Earliness:825, Tardiness:1578, Setup:1433, AOF:3836
Index:139, Earliness:653, Tardiness:1840, Setup:1380, AOF:3873
Index:140, Earliness:987, Tardiness:1887, Setup:1328, AOF:4202
Index:141, Earliness:903, Tardiness:1578, Setup:1302, AOF:3783
Index:142, Earliness:836, Tardiness:1726, Setup:1476, AOF:4038
Index:143, Earliness:683, Tardiness:1455, Setup:1370, AOF:3508
Index:144, Earliness:905, Tardiness:1403, Setup:1385, AOF:3693
Index:145, Earliness:799, Tardiness:1707, Setup:1390, AOF:3896
Index:146, Earliness:919, Tardiness:1597, Setup:1446, AOF:3962
Index:147, Earliness:881, Tardiness:1678, Setup:1402, AOF:3961
Index:148, Earliness:871, Tardiness:1408, Setup:1325, AOF:3604
Index:149, Earliness:901, Tardiness:1459, Setup:1458, AOF:3818
Index:150, Earliness:712, Tardiness:1418, Setup:1388, AOF:3518
Index:151, Earliness:774, Tardiness:1524, Setup:1335, AOF:3633
Index:152, Earliness:1069, Tardiness:1262, Setup:1408, AOF:3739
Index:153, Earliness:627, Tardiness:1555, Setup:1471, AOF:3653
Index:154, Earliness:620, Tardiness:1523, Setup:1413, AOF:3556
Index:155, Earliness:811, Tardiness:1760, Setup:1335, AOF:3906
Index:156, Earliness:894, Tardiness:1317, Setup:1396, AOF:3607
Index:157, Earliness:923, Tardiness:1487, Setup:1405, AOF:3815
Index:158, Earliness:816, Tardiness:1403, Setup:1425, AOF:3644
Index:159, Earliness:842, Tardiness:1583, Setup:1373, AOF:3798
Index:160, Earliness:746, Tardiness:1586, Setup:1400, AOF:3732
Index:161, Earliness:784, Tardiness:1991, Setup:1364, AOF:4139
Index:162, Earliness:744, Tardiness:1856, Setup:1348, AOF:3948
Index:163, Earliness:716, Tardiness:1790, Setup:1446, AOF:3952
Index:164, Earliness:564, Tardiness:1654, Setup:1474, AOF:3692
Index:165, Earliness:897, Tardiness:1264, Setup:1412, AOF:3573
Index:166, Earliness:758, Tardiness:1704, Setup:1307, AOF:3769
Index:167, Earliness:722, Tardiness:1555, Setup:1426, AOF:3703
Index:168, Earliness:761, Tardiness:1470, Setup:1413, AOF:3644
Index:169, Earliness:967, Tardiness:1521, Setup:1382, AOF:3870
Index:170, Earliness:773, Tardiness:1618, Setup:1482, AOF:3873
Index:171, Earliness:853, Tardiness:1680, Setup:1488, AOF:4021
Index:172, Earliness:992, Tardiness:1416, Setup:1348, AOF:3756
Index:173, Earliness:699, Tardiness:1599, Setup:1429, AOF:3727
Index:174, Earliness:753, Tardiness:1507, Setup:1416, AOF:3676
Index:175, Earliness:787, Tardiness:1552, Setup:1368, AOF:3707
Index:176, Earliness:887, Tardiness:1620, Setup:1442, AOF:3949
Index:177, Earliness:851, Tardiness:1613, Setup:1467, AOF:3931
Index:178, Earliness:791, Tardiness:1554, Setup:1448, AOF:3793
Index:179, Earliness:746, Tardiness:1561, Setup:1353, AOF:3660
Index:180, Earliness:893, Tardiness:1431, Setup:1387, AOF:3711
Index:181, Earliness:1013, Tardiness:1604, Setup:1224, AOF:3841
Index:182, Earliness:719, Tardiness:1816, Setup:1504, AOF:4039
Index:183, Earliness:833, Tardiness:1850, Setup:1274, AOF:3957
Index:184, Earliness:764, Tardiness:1562, Setup:1387, AOF:3713
Index:185, Earliness:714, Tardiness:1850, Setup:1511, AOF:4075
Index:186, Earliness:747, Tardiness:1438, Setup:1549, AOF:3734
Index:187, Earliness:820, Tardiness:1423, Setup:1389, AOF:3632
Index:188, Earliness:655, Tardiness:1899, Setup:1401, AOF:3955
Index:189, Earliness:869, Tardiness:1493, Setup:1390, AOF:3752
Index:190, Earliness:990, Tardiness:1597, Setup:1409, AOF:3996
Index:191, Earliness:907, Tardiness:1718, Setup:1373, AOF:3998
Index:192, Earliness:848, Tardiness:1712, Setup:1408, AOF:3968
Index:193, Earliness:894, Tardiness:1438, Setup:1340, AOF:3672
Index:194, Earliness:1016, Tardiness:1498, Setup:1485, AOF:3999
Index:195, Earliness:817, Tardiness:1408, Setup:1402, AOF:3627
Index:196, Earliness:809, Tardiness:1378, Setup:1298, AOF:3485
Index:197, Earliness:753, Tardiness:1586, Setup:1493, AOF:3832
Index:198, Earliness:662, Tardiness:1575, Setup:1377, AOF:3614
Index:199, Earliness:990, Tardiness:1324, Setup:1397, AOF:3711
Index:200, Earliness:860, Tardiness:1654, Setup:1344, AOF:3858
Index:201, Earliness:841, Tardiness:1504, Setup:1362, AOF:3707
Index:202, Earliness:944, Tardiness:1469, Setup:1354, AOF:3767
Index:203, Earliness:670, Tardiness:1640, Setup:1421, AOF:3731
Index:204, Earliness:672, Tardiness:2076, Setup:1386, AOF:4134
Index:205, Earliness:892, Tardiness:1654, Setup:1377, AOF:3923
Index:206, Earliness:699, Tardiness:1428, Setup:1418, AOF:3545
Index:207, Earliness:928, Tardiness:1900, Setup:1433, AOF:4261
Index:208, Earliness:678, Tardiness:2038, Setup:1325, AOF:4041
Index:209, Earliness:995, Tardiness:1230, Setup:1451, AOF:3676
Index:210, Earliness:714, Tardiness:1916, Setup:1393, AOF:4023
Index:211, Earliness:804, Tardiness:1876, Setup:1368, AOF:4048
Index:212, Earliness:998, Tardiness:1467, Setup:1363, AOF:3828
Index:213, Earliness:1037, Tardiness:1527, Setup:1387, AOF:3951
Index:214, Earliness:710, Tardiness:1693, Setup:1373, AOF:3776
Index:215, Earliness:795, Tardiness:1404, Setup:1340, AOF:3539
Index:216, Earliness:730, Tardiness:1759, Setup:1400, AOF:3889
Index:217, Earliness:658, Tardiness:1461, Setup:1489, AOF:3608
Index:218, Earliness:815, Tardiness:1828, Setup:1377, AOF:4020
Index:219, Earliness:812, Tardiness:1479, Setup:1386, AOF:3677
Index:220, Earliness:759, Tardiness:1520, Setup:1380, AOF:3659
Index:221, Earliness:718, Tardiness:1453, Setup:1560, AOF:3731
Index:222, Earliness:987, Tardiness:1401, Setup:1315, AOF:3703
Index:223, Earliness:560, Tardiness:2123, Setup:1483, AOF:4166
Index:224, Earliness:832, Tardiness:2081, Setup:1157, AOF:4070
Index:225, Earliness:842, Tardiness:2066, Setup:1265, AOF:4173
Index:226, Earliness:891, Tardiness:1900, Setup:1340, AOF:4131
Index:227, Earliness:820, Tardiness:1297, Setup:1398, AOF:3515
Index:228, Earliness:768, Tardiness:1693, Setup:1351, AOF:3812
Index:229, Earliness:825, Tardiness:1278, Setup:1488, AOF:3591
Index:230, Earliness:655, Tardiness:1626, Setup:1439, AOF:3720
Index:231, Earliness:834, Tardiness:1528, Setup:1335, AOF:3697
Index:232, Earliness:994, Tardiness:1554, Setup:1432, AOF:3980
Index:233, Earliness:700, Tardiness:1484, Setup:1386, AOF:3570
Index:234, Earliness:837, Tardiness:1601, Setup:1388, AOF:3826
Index:235, Earliness:794, Tardiness:1504, Setup:1381, AOF:3679
Index:236, Earliness:902, Tardiness:1709, Setup:1362, AOF:3973
Index:237, Earliness:1055, Tardiness:1604, Setup:1292, AOF:3951
Index:238, Earliness:647, Tardiness:1719, Setup:1511, AOF:3877
Index:239, Earliness:775, Tardiness:1595, Setup:1297, AOF:3667
Index:240, Earliness:770, Tardiness:1637, Setup:1471, AOF:3878
Index:241, Earliness:768, Tardiness:1618, Setup:1402, AOF:3788
Index:242, Earliness:843, Tardiness:1638, Setup:1339, AOF:3820
Index:243, Earliness:920, Tardiness:1530, Setup:1515, AOF:3965
Index:244, Earliness:734, Tardiness:1765, Setup:1361, AOF:3860
Index:245, Earliness:851, Tardiness:1436, Setup:1373, AOF:3660
Index:246, Earliness:844, Tardiness:1734, Setup:1433, AOF:4011
Index:247, Earliness:628, Tardiness:1639, Setup:1355, AOF:3622
Index:248, Earliness:723, Tardiness:1774, Setup:1295, AOF:3792
Index:249, Earliness:735, Tardiness:1775, Setup:1382, AOF:3892
Index:250, Earliness:568, Tardiness:2158, Setup:1459, AOF:4185
Index:251, Earliness:943, Tardiness:1475, Setup:1361, AOF:3779
Index:252, Earliness:802, Tardiness:1341, Setup:1453, AOF:3596
Index:253, Earliness:918, Tardiness:2111, Setup:1321, AOF:4350
Index:254, Earliness:1003, Tardiness:1457, Setup:1264, AOF:3724
Index:255, Earliness:885, Tardiness:1429, Setup:1380, AOF:3694
Index:256, Earliness:953, Tardiness:1859, Setup:1243, AOF:4055
Index:257, Earliness:830, Tardiness:1425, Setup:1324, AOF:3579
Index:258, Earliness:1000, Tardiness:1670, Setup:1255, AOF:3925
Index:259, Earliness:697, Tardiness:1768, Setup:1315, AOF:3780
Index:260, Earliness:872, Tardiness:1685, Setup:1391, AOF:3948
Index:261, Earliness:946, Tardiness:1159, Setup:1419, AOF:3524
Index:262, Earliness:721, Tardiness:2034, Setup:1351, AOF:4106
Index:263, Earliness:946, Tardiness:1482, Setup:1476, AOF:3904
Index:264, Earliness:932, Tardiness:1173, Setup:1458, AOF:3563
Index:265, Earliness:792, Tardiness:1517, Setup:1453, AOF:3762
Index:266, Earliness:704, Tardiness:1822, Setup:1299, AOF:3825
Index:267, Earliness:647, Tardiness:1459, Setup:1401, AOF:3507
Index:268, Earliness:835, Tardiness:1473, Setup:1461, AOF:3769
Index:269, Earliness:651, Tardiness:1731, Setup:1380, AOF:3762
Index:270, Earliness:784, Tardiness:1705, Setup:1288, AOF:3777
Index:271, Earliness:1062, Tardiness:1676, Setup:1310, AOF:4048
Index:272, Earliness:710, Tardiness:1803, Setup:1571, AOF:4084
Index:273, Earliness:972, Tardiness:1351, Setup:1436, AOF:3759
Index:274, Earliness:845, Tardiness:1305, Setup:1381, AOF:3531
Index:275, Earliness:601, Tardiness:1516, Setup:1395, AOF:3512
Index:276, Earliness:905, Tardiness:1365, Setup:1396, AOF:3666
Index:277, Earliness:904, Tardiness:1561, Setup:1385, AOF:3850
Index:278, Earliness:845, Tardiness:1562, Setup:1531, AOF:3938
Index:279, Earliness:951, Tardiness:1799, Setup:1452, AOF:4202
Index:280, Earliness:822, Tardiness:1889, Setup:1187, AOF:3898
Index:281, Earliness:748, Tardiness:2010, Setup:1407, AOF:4165
Index:282, Earliness:737, Tardiness:1941, Setup:1390, AOF:4068
Index:283, Earliness:759, Tardiness:1772, Setup:1324, AOF:3855
Index:284, Earliness:802, Tardiness:1574, Setup:1395, AOF:3771
Index:285, Earliness:820, Tardiness:1349, Setup:1440, AOF:3609
Index:286, Earliness:901, Tardiness:1598, Setup:1386, AOF:3885
Index:287, Earliness:704, Tardiness:1582, Setup:1425, AOF:3711
Index:288, Earliness:951, Tardiness:1419, Setup:1374, AOF:3744
Index:289, Earliness:789, Tardiness:1593, Setup:1409, AOF:3791
Index:290, Earliness:639, Tardiness:1739, Setup:1328, AOF:3706
Index:291, Earliness:871, Tardiness:1449, Setup:1380, AOF:3700
Index:292, Earliness:797, Tardiness:1597, Setup:1400, AOF:3794
Index:293, Earliness:779, Tardiness:1469, Setup:1287, AOF:3535
Index:294, Earliness:929, Tardiness:1564, Setup:1328, AOF:3821
Index:295, Earliness:911, Tardiness:1537, Setup:1270, AOF:3718
Index:296, Earliness:856, Tardiness:1717, Setup:1413, AOF:3986
Index:297, Earliness:792, Tardiness:1668, Setup:1426, AOF:3886
Index:298, Earliness:817, Tardiness:1312, Setup:1414, AOF:3543
Index:299, Earliness:913, Tardiness:1279, Setup:1494, AOF:3686
Index:300, Earliness:646, Tardiness:1675, Setup:1428, AOF:3749
Index:301, Earliness:990, Tardiness:1561, Setup:1467, AOF:4018
Index:302, Earliness:667, Tardiness:1537, Setup:1367, AOF:3571
Index:303, Earliness:748, Tardiness:1653, Setup:1401, AOF:3802
Index:304, Earliness:672, Tardiness:1892, Setup:1283, AOF:3847
Index:305, Earliness:707, Tardiness:1867, Setup:1417, AOF:3991
Index:306, Earliness:980, Tardiness:1332, Setup:1377, AOF:3689
Index:307, Earliness:547, Tardiness:1663, Setup:1431, AOF:3641
Index:308, Earliness:890, Tardiness:1773, Setup:1437, AOF:4100
Index:309, Earliness:882, Tardiness:1355, Setup:1416, AOF:3653
Index:310, Earliness:884, Tardiness:1557, Setup:1452, AOF:3893
Index:311, Earliness:661, Tardiness:1548, Setup:1481, AOF:3690
Index:312, Earliness:753, Tardiness:1666, Setup:1328, AOF:3747
Index:313, Earliness:914, Tardiness:1476, Setup:1357, AOF:3747
Index:314, Earliness:684, Tardiness:1619, Setup:1355, AOF:3658
Index:315, Earliness:805, Tardiness:1295, Setup:1437, AOF:3537
Index:316, Earliness:845, Tardiness:1377, Setup:1356, AOF:3578
Index:317, Earliness:854, Tardiness:1451, Setup:1346, AOF:3651
Index:318, Earliness:880, Tardiness:1664, Setup:1365, AOF:3909
Index:319, Earliness:850, Tardiness:1431, Setup:1351, AOF:3632
Index:320, Earliness:837, Tardiness:1379, Setup:1434, AOF:3650
Index:321, Earliness:990, Tardiness:1245, Setup:1323, AOF:3558
Index:322, Earliness:930, Tardiness:1506, Setup:1361, AOF:3797
Index:323, Earliness:699, Tardiness:1542, Setup:1341, AOF:3582
Index:324, Earliness:894, Tardiness:1333, Setup:1499, AOF:3726
Index:325, Earliness:592, Tardiness:1582, Setup:1455, AOF:3629
Index:326, Earliness:952, Tardiness:1340, Setup:1462, AOF:3754
Index:327, Earliness:720, Tardiness:1558, Setup:1457, AOF:3735
Index:328, Earliness:724, Tardiness:1579, Setup:1448, AOF:3751
Index:329, Earliness:817, Tardiness:1861, Setup:1459, AOF:4137
Index:330, Earliness:854, Tardiness:1877, Setup:1340, AOF:4071
Index:331, Earliness:961, Tardiness:1507, Setup:1437, AOF:3905
Index:332, Earliness:632, Tardiness:1839, Setup:1344, AOF:3815
Index:333, Earliness:536, Tardiness:1881, Setup:1380, AOF:3797
Index:334, Earliness:802, Tardiness:1541, Setup:1395, AOF:3738
Index:335, Earliness:1070, Tardiness:1459, Setup:1414, AOF:3943
Index:336, Earliness:723, Tardiness:1910, Setup:1424, AOF:4057
Index:337, Earliness:762, Tardiness:1523, Setup:1457, AOF:3742
Index:338, Earliness:777, Tardiness:1320, Setup:1516, AOF:3613
Index:339, Earliness:617, Tardiness:1480, Setup:1444, AOF:3541
Index:340, Earliness:654, Tardiness:1715, Setup:1433, AOF:3802
Index:341, Earliness:729, Tardiness:1829, Setup:1388, AOF:3946
Index:342, Earliness:605, Tardiness:1633, Setup:1379, AOF:3617
Index:343, Earliness:837, Tardiness:1543, Setup:1470, AOF:3850
Index:344, Earliness:905, Tardiness:1807, Setup:1413, AOF:4125
Index:345, Earliness:894, Tardiness:1469, Setup:1447, AOF:3810
Index:346, Earliness:614, Tardiness:1865, Setup:1324, AOF:3803
Index:347, Earliness:513, Tardiness:1597, Setup:1453, AOF:3563
Index:348, Earliness:731, Tardiness:1606, Setup:1381, AOF:3718
Index:349, Earliness:855, Tardiness:1526, Setup:1390, AOF:3771
Index:350, Earliness:771, Tardiness:1466, Setup:1367, AOF:3604
Index:351, Earliness:903, Tardiness:1650, Setup:1414, AOF:3967
Index:352, Earliness:637, Tardiness:1714, Setup:1396, AOF:3747
Index:353, Earliness:946, Tardiness:1231, Setup:1460, AOF:3637
Index:354, Earliness:901, Tardiness:1390, Setup:1396, AOF:3687
Index:355, Earliness:882, Tardiness:1407, Setup:1388, AOF:3677
Index:356, Earliness:797, Tardiness:1870, Setup:1358, AOF:4025
Index:357, Earliness:710, Tardiness:1699, Setup:1410, AOF:3819
Index:358, Earliness:832, Tardiness:1545, Setup:1340, AOF:3717
Index:359, Earliness:802, Tardiness:1915, Setup:1362, AOF:4079
Index:360, Earliness:711, Tardiness:1995, Setup:1471, AOF:4177
Index:361, Earliness:905, Tardiness:1426, Setup:1310, AOF:3641
Index:362, Earliness:821, Tardiness:1695, Setup:1379, AOF:3895
Index:363, Earliness:894, Tardiness:1689, Setup:1336, AOF:3919
Index:364, Earliness:822, Tardiness:1389, Setup:1504, AOF:3715
Index:365, Earliness:882, Tardiness:1851, Setup:1388, AOF:4121
Index:366, Earliness:932, Tardiness:1498, Setup:1309, AOF:3739
Index:367, Earliness:725, Tardiness:1377, Setup:1446, AOF:3548
Index:368, Earliness:749, Tardiness:1775, Setup:1419, AOF:3943
Index:369, Earliness:960, Tardiness:1535, Setup:1376, AOF:3871
Index:370, Earliness:703, Tardiness:1910, Setup:1408, AOF:4021
Index:371, Earliness:981, Tardiness:1549, Setup:1298, AOF:3828
Index:372, Earliness:1017, Tardiness:1532, Setup:1321, AOF:3870
Index:373, Earliness:832, Tardiness:1359, Setup:1439, AOF:3630
Index:374, Earliness:1050, Tardiness:1487, Setup:1387, AOF:3924
Index:375, Earliness:632, Tardiness:1757, Setup:1381, AOF:3770
Index:376, Earliness:822, Tardiness:1488, Setup:1465, AOF:3775
Index:377, Earliness:873, Tardiness:1457, Setup:1435, AOF:3765
Index:378, Earliness:1116, Tardiness:1402, Setup:1466, AOF:3984
Index:379, Earliness:648, Tardiness:1566, Setup:1375, AOF:3589
Index:380, Earliness:909, Tardiness:1436, Setup:1388, AOF:3733
Index:381, Earliness:705, Tardiness:1405, Setup:1411, AOF:3521
Index:382, Earliness:726, Tardiness:1754, Setup:1409, AOF:3889
Index:383, Earliness:815, Tardiness:1365, Setup:1403, AOF:3583
Index:384, Earliness:823, Tardiness:1696, Setup:1327, AOF:3846
Index:385, Earliness:615, Tardiness:1524, Setup:1400, AOF:3539
Index:386, Earliness:679, Tardiness:1853, Setup:1371, AOF:3903
Index:387, Earliness:874, Tardiness:1195, Setup:1370, AOF:3439
Index:388, Earliness:970, Tardiness:1547, Setup:1295, AOF:3812
Index:389, Earliness:787, Tardiness:1569, Setup:1374, AOF:3730
Index:390, Earliness:862, Tardiness:1384, Setup:1370, AOF:3616
Index:391, Earliness:820, Tardiness:1890, Setup:1332, AOF:4042
Index:392, Earliness:1030, Tardiness:1388, Setup:1416, AOF:3834
Index:393, Earliness:700, Tardiness:1549, Setup:1364, AOF:3613
Index:394, Earliness:630, Tardiness:1533, Setup:1461, AOF:3624
Index:395, Earliness:752, Tardiness:1682, Setup:1393, AOF:3827
Index:396, Earliness:970, Tardiness:1506, Setup:1284, AOF:3760
Index:397, Earliness:755, Tardiness:1393, Setup:1363, AOF:3511
Index:398, Earliness:730, Tardiness:1595, Setup:1343, AOF:3668
Index:399, Earliness:879, Tardiness:1789, Setup:1263, AOF:3931
Index:400, Earliness:816, Tardiness:1666, Setup:1279, AOF:3761
Index:401, Earliness:760, Tardiness:1506, Setup:1446, AOF:3712
Index:402, Earliness:730, Tardiness:1821, Setup:1271, AOF:3822
Index:403, Earliness:736, Tardiness:2066, Setup:1479, AOF:4281
Index:404, Earliness:810, Tardiness:1453, Setup:1428, AOF:3691
Index:405, Earliness:836, Tardiness:1432, Setup:1407, AOF:3675
Index:406, Earliness:795, Tardiness:1620, Setup:1414, AOF:3829
Index:407, Earliness:816, Tardiness:1579, Setup:1462, AOF:3857
Index:408, Earliness:724, Tardiness:1486, Setup:1500, AOF:3710
Index:409, Earliness:913, Tardiness:1261, Setup:1340, AOF:3514
Index:410, Earliness:958, Tardiness:1385, Setup:1358, AOF:3701
Index:411, Earliness:581, Tardiness:1739, Setup:1425, AOF:3745
Index:412, Earliness:1032, Tardiness:1301, Setup:1314, AOF:3647
Index:413, Earliness:870, Tardiness:1389, Setup:1403, AOF:3662
Index:414, Earliness:807, Tardiness:1386, Setup:1422, AOF:3615
Index:415, Earliness:1028, Tardiness:1783, Setup:1299, AOF:4110
Index:416, Earliness:901, Tardiness:1464, Setup:1442, AOF:3807
Index:417, Earliness:593, Tardiness:1986, Setup:1379, AOF:3958
Index:418, Earliness:713, Tardiness:1881, Setup:1353, AOF:3947
Index:419, Earliness:624, Tardiness:1905, Setup:1355, AOF:3884
Index:420, Earliness:694, Tardiness:1656, Setup:1437, AOF:3787
Index:421, Earliness:702, Tardiness:1688, Setup:1448, AOF:3838
Index:422, Earliness:1072, Tardiness:1336, Setup:1339, AOF:3747
Index:423, Earliness:716, Tardiness:1791, Setup:1366, AOF:3873
Index:424, Earliness:1030, Tardiness:1393, Setup:1438, AOF:3861
Index:425, Earliness:867, Tardiness:1532, Setup:1279, AOF:3678
Index:426, Earliness:612, Tardiness:2129, Setup:1412, AOF:4153
Index:427, Earliness:645, Tardiness:1506, Setup:1429, AOF:3580
Index:428, Earliness:586, Tardiness:2104, Setup:1388, AOF:4078
Index:429, Earliness:1011, Tardiness:1527, Setup:1410, AOF:3948
Index:430, Earliness:841, Tardiness:1450, Setup:1456, AOF:3747
Index:431, Earliness:774, Tardiness:1549, Setup:1406, AOF:3729
Index:432, Earliness:758, Tardiness:1378, Setup:1501, AOF:3637
Index:433, Earliness:822, Tardiness:1653, Setup:1323, AOF:3798
Index:434, Earliness:729, Tardiness:1664, Setup:1430, AOF:3823
Index:435, Earliness:620, Tardiness:1715, Setup:1344, AOF:3679
Index:436, Earliness:698, Tardiness:1663, Setup:1327, AOF:3688
Index:437, Earliness:780, Tardiness:1522, Setup:1380, AOF:3682
Index:438, Earliness:605, Tardiness:1901, Setup:1416, AOF:3922
Index:439, Earliness:603, Tardiness:1667, Setup:1264, AOF:3534
Index:440, Earliness:679, Tardiness:1464, Setup:1373, AOF:3516
Index:441, Earliness:871, Tardiness:1576, Setup:1358, AOF:3805
Index:442, Earliness:936, Tardiness:1489, Setup:1315, AOF:3740
Index:443, Earliness:744, Tardiness:1956, Setup:1436, AOF:4136
Index:444, Earliness:1068, Tardiness:1395, Setup:1346, AOF:3809
Index:445, Earliness:836, Tardiness:1696, Setup:1330, AOF:3862
Index:446, Earliness:681, Tardiness:1888, Setup:1302, AOF:3871
Index:447, Earliness:959, Tardiness:1362, Setup:1381, AOF:3702
Index:448, Earliness:682, Tardiness:1602, Setup:1427, AOF:3711
Index:449, Earliness:770, Tardiness:2035, Setup:1409, AOF:4214
Index:450, Earliness:936, Tardiness:1233, Setup:1387, AOF:3556
Index:451, Earliness:700, Tardiness:1783, Setup:1368, AOF:3851
Index:452, Earliness:689, Tardiness:1431, Setup:1438, AOF:3558
Index:453, Earliness:762, Tardiness:1311, Setup:1418, AOF:3491
Index:454, Earliness:795, Tardiness:1511, Setup:1384, AOF:3690
Index:455, Earliness:721, Tardiness:1598, Setup:1431, AOF:3750
Index:456, Earliness:804, Tardiness:1218, Setup:1402, AOF:3424
Index:457, Earliness:1004, Tardiness:1493, Setup:1436, AOF:3933
Index:458, Earliness:581, Tardiness:1927, Setup:1362, AOF:3870
Index:459, Earliness:729, Tardiness:2014, Setup:1348, AOF:4091
Index:460, Earliness:667, Tardiness:2048, Setup:1344, AOF:4059
Index:461, Earliness:647, Tardiness:1798, Setup:1413, AOF:3858
Index:462, Earliness:752, Tardiness:1722, Setup:1325, AOF:3799
Index:463, Earliness:804, Tardiness:1769, Setup:1403, AOF:3976
Index:464, Earliness:872, Tardiness:1471, Setup:1500, AOF:3843
Index:465, Earliness:823, Tardiness:1455, Setup:1352, AOF:3630
Index:466, Earliness:709, Tardiness:1926, Setup:1462, AOF:4097
Index:467, Earliness:712, Tardiness:1943, Setup:1441, AOF:4096
Index:468, Earliness:954, Tardiness:1987, Setup:1361, AOF:4302
Index:469, Earliness:937, Tardiness:1423, Setup:1454, AOF:3814
Index:470, Earliness:947, Tardiness:1549, Setup:1393, AOF:3889
Index:471, Earliness:879, Tardiness:1619, Setup:1406, AOF:3904
Index:472, Earliness:861, Tardiness:1713, Setup:1417, AOF:3991
Index:473, Earliness:889, Tardiness:1374, Setup:1383, AOF:3646
Index:474, Earliness:691, Tardiness:2049, Setup:1308, AOF:4048
Index:475, Earliness:793, Tardiness:1848, Setup:1491, AOF:4132
Index:476, Earliness:628, Tardiness:1763, Setup:1406, AOF:3797
Index:477, Earliness:853, Tardiness:1415, Setup:1371, AOF:3639
Index:478, Earliness:857, Tardiness:1541, Setup:1398, AOF:3796
Index:479, Earliness:858, Tardiness:1420, Setup:1428, AOF:3706
Index:480, Earliness:836, Tardiness:1587, Setup:1340, AOF:3763
Index:481, Earliness:811, Tardiness:1482, Setup:1382, AOF:3675
Index:482, Earliness:788, Tardiness:1410, Setup:1399, AOF:3597
Index:483, Earliness:855, Tardiness:1390, Setup:1489, AOF:3734
Index:484, Earliness:421, Tardiness:1774, Setup:1420, AOF:3615
Index:485, Earliness:669, Tardiness:1721, Setup:1362, AOF:3752
Index:486, Earliness:790, Tardiness:1546, Setup:1387, AOF:3723
Index:487, Earliness:1150, Tardiness:1319, Setup:1353, AOF:3822
Index:488, Earliness:904, Tardiness:1170, Setup:1381, AOF:3455
Index:489, Earliness:940, Tardiness:1780, Setup:1370, AOF:4090
Index:490, Earliness:660, Tardiness:1504, Setup:1426, AOF:3590
Index:491, Earliness:751, Tardiness:1909, Setup:1440, AOF:4100
Index:492, Earliness:813, Tardiness:1492, Setup:1405, AOF:3710
Index:493, Earliness:865, Tardiness:1430, Setup:1393, AOF:3688
Index:494, Earliness:1033, Tardiness:1393, Setup:1456, AOF:3882
Index:495, Earliness:732, Tardiness:1652, Setup:1312, AOF:3696
Index:496, Earliness:1020, Tardiness:1298, Setup:1390, AOF:3708
Index:497, Earliness:880, Tardiness:1252, Setup:1408, AOF:3540
Index:498, Earliness:589, Tardiness:1971, Setup:1457, AOF:4017
Index:499, Earliness:891, Tardiness:1495, Setup:1429, AOF:3815
Index:500, Earliness:763, Tardiness:1412, Setup:1542, AOF:3717
Index:501, Earliness:1040, Tardiness:1594, Setup:1326, AOF:3960
Index:502, Earliness:591, Tardiness:1838, Setup:1422, AOF:3851
Index:503, Earliness:777, Tardiness:1953, Setup:1396, AOF:4126
Index:504, Earliness:778, Tardiness:1789, Setup:1378, AOF:3945
Index:505, Earliness:842, Tardiness:1571, Setup:1443, AOF:3856
Index:506, Earliness:1007, Tardiness:1444, Setup:1436, AOF:3887
Index:507, Earliness:767, Tardiness:1567, Setup:1352, AOF:3686
Index:508, Earliness:698, Tardiness:1787, Setup:1360, AOF:3845
Index:509, Earliness:703, Tardiness:1381, Setup:1494, AOF:3578
Index:510, Earliness:844, Tardiness:1704, Setup:1355, AOF:3903
Index:511, Earliness:799, Tardiness:1802, Setup:1443, AOF:4044
Index:512, Earliness:1068, Tardiness:1522, Setup:1523, AOF:4113
Index:513, Earliness:853, Tardiness:1514, Setup:1482, AOF:3849
Index:514, Earliness:839, Tardiness:1609, Setup:1361, AOF:3809
Index:515, Earliness:1066, Tardiness:1121, Setup:1465, AOF:3652
Index:516, Earliness:779, Tardiness:1379, Setup:1365, AOF:3523
Index:517, Earliness:957, Tardiness:1508, Setup:1318, AOF:3783
Index:518, Earliness:608, Tardiness:1675, Setup:1411, AOF:3694
Index:519, Earliness:959, Tardiness:1767, Setup:1431, AOF:4157
Index:520, Earliness:714, Tardiness:1763, Setup:1443, AOF:3920
Index:521, Earliness:713, Tardiness:1365, Setup:1427, AOF:3505
Index:522, Earliness:637, Tardiness:1854, Setup:1343, AOF:3834
Index:523, Earliness:933, Tardiness:1310, Setup:1494, AOF:3737
Index:524, Earliness:627, Tardiness:1782, Setup:1406, AOF:3815
Index:525, Earliness:809, Tardiness:1509, Setup:1431, AOF:3749
Index:526, Earliness:692, Tardiness:1817, Setup:1505, AOF:4014
Index:527, Earliness:985, Tardiness:1232, Setup:1432, AOF:3649
Index:528, Earliness:1033, Tardiness:1197, Setup:1441, AOF:3671
Index:529, Earliness:705, Tardiness:1744, Setup:1406, AOF:3855
Index:530, Earliness:953, Tardiness:1979, Setup:1276, AOF:4208
Index:531, Earliness:1150, Tardiness:1379, Setup:1391, AOF:3920
Index:532, Earliness:582, Tardiness:1825, Setup:1383, AOF:3790
Index:533, Earliness:822, Tardiness:1963, Setup:1340, AOF:4125
Index:534, Earliness:637, Tardiness:1693, Setup:1390, AOF:3720
Index:535, Earliness:859, Tardiness:1676, Setup:1431, AOF:3966
Index:536, Earliness:828, Tardiness:1563, Setup:1280, AOF:3671
Index:537, Earliness:795, Tardiness:1638, Setup:1353, AOF:3786
Index:538, Earliness:728, Tardiness:1514, Setup:1475, AOF:3717
Index:539, Earliness:1011, Tardiness:1583, Setup:1261, AOF:3855
Index:540, Earliness:772, Tardiness:1472, Setup:1442, AOF:3686
Index:541, Earliness:983, Tardiness:1909, Setup:1468, AOF:4360
Index:542, Earliness:905, Tardiness:1729, Setup:1382, AOF:4016
Index:543, Earliness:1006, Tardiness:1223, Setup:1376, AOF:3605
Index:544, Earliness:718, Tardiness:1645, Setup:1353, AOF:3716
Index:545, Earliness:987, Tardiness:1313, Setup:1422, AOF:3722
Index:546, Earliness:651, Tardiness:2373, Setup:1541, AOF:4565
Index:547, Earliness:902, Tardiness:1365, Setup:1413, AOF:3680
Index:548, Earliness:679, Tardiness:1620, Setup:1478, AOF:3777
Index:549, Earliness:842, Tardiness:1562, Setup:1384, AOF:3788
Index:550, Earliness:769, Tardiness:1561, Setup:1335, AOF:3665
Index:551, Earliness:808, Tardiness:1627, Setup:1295, AOF:3730
Index:552, Earliness:898, Tardiness:1703, Setup:1357, AOF:3958
Index:553, Earliness:692, Tardiness:1453, Setup:1348, AOF:3493
Index:554, Earliness:859, Tardiness:1443, Setup:1414, AOF:3716
Index:555, Earliness:968, Tardiness:1484, Setup:1386, AOF:3838
Index:556, Earliness:821, Tardiness:1394, Setup:1387, AOF:3602
Index:557, Earliness:921, Tardiness:1795, Setup:1459, AOF:4175
Index:558, Earliness:798, Tardiness:1269, Setup:1452, AOF:3519
Index:559, Earliness:573, Tardiness:1676, Setup:1387, AOF:3636
Index:560, Earliness:660, Tardiness:1820, Setup:1368, AOF:3848
Index:561, Earliness:931, Tardiness:1107, Setup:1401, AOF:3439
Index:562, Earliness:883, Tardiness:1259, Setup:1432, AOF:3574
Index:563, Earliness:840, Tardiness:1657, Setup:1440, AOF:3937
Index:564, Earliness:822, Tardiness:1332, Setup:1426, AOF:3580
Index:565, Earliness:813, Tardiness:1869, Setup:1341, AOF:4023
Index:566, Earliness:805, Tardiness:1583, Setup:1398, AOF:3786
Index:567, Earliness:931, Tardiness:1311, Setup:1429, AOF:3671
Index:568, Earliness:939, Tardiness:1270, Setup:1436, AOF:3645
Index:569, Earliness:809, Tardiness:1435, Setup:1519, AOF:3763
Index:570, Earliness:936, Tardiness:1571, Setup:1294, AOF:3801
Index:571, Earliness:992, Tardiness:1400, Setup:1340, AOF:3732
Index:572, Earliness:805, Tardiness:1454, Setup:1497, AOF:3756
Index:573, Earliness:637, Tardiness:1722, Setup:1433, AOF:3792
Index:574, Earliness:771, Tardiness:1994, Setup:1363, AOF:4128
Index:575, Earliness:835, Tardiness:1616, Setup:1302, AOF:3753
Index:576, Earliness:680, Tardiness:1559, Setup:1371, AOF:3610
Index:577, Earliness:978, Tardiness:1819, Setup:1347, AOF:4144
Index:578, Earliness:962, Tardiness:2111, Setup:1264, AOF:4337
Index:579, Earliness:881, Tardiness:1663, Setup:1486, AOF:4030
Index:580, Earliness:603, Tardiness:1836, Setup:1437, AOF:3876
Index:581, Earliness:788, Tardiness:1526, Setup:1410, AOF:3724
Index:582, Earliness:857, Tardiness:1483, Setup:1503, AOF:3843
Index:583, Earliness:948, Tardiness:1723, Setup:1296, AOF:3967
Index:584, Earliness:733, Tardiness:1631, Setup:1512, AOF:3876
Index:585, Earliness:775, Tardiness:1470, Setup:1435, AOF:3680
Index:586, Earliness:782, Tardiness:1566, Setup:1446, AOF:3794
Index:587, Earliness:830, Tardiness:1498, Setup:1311, AOF:3639
Index:588, Earliness:744, Tardiness:1659, Setup:1263, AOF:3666
Index:589, Earliness:863, Tardiness:1378, Setup:1439, AOF:3680
Index:590, Earliness:551, Tardiness:1708, Setup:1410, AOF:3669
Index:591, Earliness:941, Tardiness:1685, Setup:1476, AOF:4102
Index:592, Earliness:860, Tardiness:1264, Setup:1436, AOF:3560
Index:593, Earliness:591, Tardiness:1493, Setup:1444, AOF:3528
Index:594, Earliness:609, Tardiness:1605, Setup:1390, AOF:3604
Index:595, Earliness:817, Tardiness:1526, Setup:1439, AOF:3782
Index:596, Earliness:876, Tardiness:1573, Setup:1331, AOF:3780
Index:597, Earliness:771, Tardiness:1644, Setup:1268, AOF:3683
Index:598, Earliness:631, Tardiness:1992, Setup:1360, AOF:3983
Index:599, Earliness:843, Tardiness:1331, Setup:1455, AOF:3629
Index:600, Earliness:418, Tardiness:1742, Setup:1410, AOF:3570
Index:601, Earliness:822, Tardiness:1454, Setup:1328, AOF:3604
Index:602, Earliness:846, Tardiness:1260, Setup:1430, AOF:3536
Index:603, Earliness:1163, Tardiness:1644, Setup:1343, AOF:4150
Index:604, Earliness:687, Tardiness:1542, Setup:1425, AOF:3654
Index:605, Earliness:582, Tardiness:1575, Setup:1449, AOF:3606
Index:606, Earliness:766, Tardiness:1531, Setup:1346, AOF:3643
Index:607, Earliness:921, Tardiness:1746, Setup:1434, AOF:4101
Index:608, Earliness:894, Tardiness:1486, Setup:1303, AOF:3683
Index:609, Earliness:928, Tardiness:1634, Setup:1494, AOF:4056
Index:610, Earliness:692, Tardiness:1577, Setup:1473, AOF:3742
Index:611, Earliness:1186, Tardiness:1498, Setup:1402, AOF:4086
Index:612, Earliness:772, Tardiness:1700, Setup:1343, AOF:3815
Index:613, Earliness:747, Tardiness:1822, Setup:1395, AOF:3964
Index:614, Earliness:822, Tardiness:1960, Setup:1293, AOF:4075
Index:615, Earliness:750, Tardiness:1647, Setup:1426, AOF:3823
Index:616, Earliness:824, Tardiness:1754, Setup:1395, AOF:3973
Index:617, Earliness:767, Tardiness:1462, Setup:1478, AOF:3707
Index:618, Earliness:638, Tardiness:1964, Setup:1260, AOF:3862
Index:619, Earliness:707, Tardiness:1717, Setup:1409, AOF:3833
Index:620, Earliness:851, Tardiness:1390, Setup:1430, AOF:3671
Index:621, Earliness:640, Tardiness:1649, Setup:1425, AOF:3714
Index:622, Earliness:660, Tardiness:1800, Setup:1411, AOF:3871
Index:623, Earliness:623, Tardiness:1591, Setup:1431, AOF:3645
Index:624, Earliness:820, Tardiness:1366, Setup:1376, AOF:3562
Index:625, Earliness:757, Tardiness:1486, Setup:1394, AOF:3637
Index:626, Earliness:785, Tardiness:1467, Setup:1464, AOF:3716
Index:627, Earliness:839, Tardiness:1658, Setup:1388, AOF:3885
Index:628, Earliness:736, Tardiness:1767, Setup:1438, AOF:3941
Index:629, Earliness:813, Tardiness:1360, Setup:1373, AOF:3546
Index:630, Earliness:864, Tardiness:1769, Setup:1327, AOF:3960
Index:631, Earliness:891, Tardiness:1606, Setup:1265, AOF:3762
Index:632, Earliness:501, Tardiness:1731, Setup:1445, AOF:3677
Index:633, Earliness:822, Tardiness:1423, Setup:1386, AOF:3631
Index:634, Earliness:854, Tardiness:1636, Setup:1394, AOF:3884
Index:635, Earliness:777, Tardiness:1329, Setup:1393, AOF:3499
Index:636, Earliness:901, Tardiness:1679, Setup:1319, AOF:3899
Index:637, Earliness:780, Tardiness:1939, Setup:1438, AOF:4157
Index:638, Earliness:847, Tardiness:1761, Setup:1404, AOF:4012
Index:639, Earliness:938, Tardiness:1412, Setup:1411, AOF:3761
Index:640, Earliness:674, Tardiness:1719, Setup:1381, AOF:3774
Index:641, Earliness:878, Tardiness:1592, Setup:1345, AOF:3815
Index:642, Earliness:711, Tardiness:1607, Setup:1405, AOF:3723
Index:643, Earliness:683, Tardiness:1996, Setup:1400, AOF:4079
Index:644, Earliness:813, Tardiness:1717, Setup:1308, AOF:3838
Index:645, Earliness:941, Tardiness:1600, Setup:1363, AOF:3904
Index:646, Earliness:955, Tardiness:1445, Setup:1319, AOF:3719
Index:647, Earliness:937, Tardiness:1695, Setup:1266, AOF:3898
Index:648, Earliness:988, Tardiness:1301, Setup:1426, AOF:3715
Index:649, Earliness:756, Tardiness:1682, Setup:1425, AOF:3863
Index:650, Earliness:742, Tardiness:1651, Setup:1380, AOF:3773
Index:651, Earliness:927, Tardiness:1198, Setup:1367, AOF:3492
Index:652, Earliness:645, Tardiness:1829, Setup:1427, AOF:3901
Index:653, Earliness:823, Tardiness:1295, Setup:1317, AOF:3435
Index:654, Earliness:879, Tardiness:1630, Setup:1431, AOF:3940
Index:655, Earliness:725, Tardiness:1810, Setup:1388, AOF:3923
Index:656, Earliness:826, Tardiness:1722, Setup:1355, AOF:3903
Index:657, Earliness:792, Tardiness:1524, Setup:1425, AOF:3741
Index:658, Earliness:663, Tardiness:1798, Setup:1285, AOF:3746
Index:659, Earliness:815, Tardiness:1602, Setup:1409, AOF:3826
Index:660, Earliness:680, Tardiness:1986, Setup:1351, AOF:4017
Index:661, Earliness:916, Tardiness:1456, Setup:1412, AOF:3784
Index:662, Earliness:845, Tardiness:1299, Setup:1440, AOF:3584
Index:663, Earliness:964, Tardiness:1366, Setup:1491, AOF:3821
Index:664, Earliness:946, Tardiness:1810, Setup:1320, AOF:4076
Index:665, Earliness:1023, Tardiness:1464, Setup:1365, AOF:3852
Index:666, Earliness:953, Tardiness:1832, Setup:1349, AOF:4134
Index:667, Earliness:767, Tardiness:1523, Setup:1384, AOF:3674
Index:668, Earliness:1039, Tardiness:1674, Setup:1355, AOF:4068
Index:669, Earliness:733, Tardiness:1835, Setup:1315, AOF:3883
Index:670, Earliness:813, Tardiness:1483, Setup:1429, AOF:3725
Index:671, Earliness:892, Tardiness:1415, Setup:1471, AOF:3778
Index:672, Earliness:804, Tardiness:1574, Setup:1377, AOF:3755
Index:673, Earliness:842, Tardiness:1804, Setup:1286, AOF:3932
Index:674, Earliness:903, Tardiness:1523, Setup:1338, AOF:3764
Index:675, Earliness:891, Tardiness:1550, Setup:1365, AOF:3806
Index:676, Earliness:810, Tardiness:1521, Setup:1495, AOF:3826
Index:677, Earliness:765, Tardiness:2043, Setup:1378, AOF:4186
Index:678, Earliness:713, Tardiness:1683, Setup:1363, AOF:3759
Index:679, Earliness:888, Tardiness:1495, Setup:1291, AOF:3674
Index:680, Earliness:963, Tardiness:1148, Setup:1428, AOF:3539
Index:681, Earliness:697, Tardiness:1436, Setup:1486, AOF:3619
Index:682, Earliness:659, Tardiness:1636, Setup:1413, AOF:3708
Index:683, Earliness:889, Tardiness:1576, Setup:1405, AOF:3870
Index:684, Earliness:837, Tardiness:2047, Setup:1395, AOF:4279
Index:685, Earliness:650, Tardiness:1475, Setup:1421, AOF:3546
Index:686, Earliness:799, Tardiness:1791, Setup:1392, AOF:3982
Index:687, Earliness:946, Tardiness:1383, Setup:1434, AOF:3763
Index:688, Earliness:676, Tardiness:1987, Setup:1430, AOF:4093
Index:689, Earliness:857, Tardiness:1696, Setup:1279, AOF:3832
Index:690, Earliness:752, Tardiness:1659, Setup:1402, AOF:3813
Index:691, Earliness:897, Tardiness:1402, Setup:1399, AOF:3698
Index:692, Earliness:668, Tardiness:1610, Setup:1355, AOF:3633
Index:693, Earliness:663, Tardiness:1660, Setup:1398, AOF:3721
Index:694, Earliness:700, Tardiness:1720, Setup:1367, AOF:3787
Index:695, Earliness:654, Tardiness:1803, Setup:1417, AOF:3874
Index:696, Earliness:845, Tardiness:1850, Setup:1221, AOF:3916
Index:697, Earliness:678, Tardiness:1854, Setup:1333, AOF:3865
Index:698, Earliness:890, Tardiness:1367, Setup:1344, AOF:3601
Index:699, Earliness:815, Tardiness:1573, Setup:1444, AOF:3832
Index:700, Earliness:760, Tardiness:1972, Setup:1366, AOF:4098
Index:701, Earliness:799, Tardiness:1444, Setup:1441, AOF:3684
Index:702, Earliness:857, Tardiness:1648, Setup:1576, AOF:4081
Index:703, Earliness:847, Tardiness:1532, Setup:1419, AOF:3798
Index:704, Earliness:964, Tardiness:1526, Setup:1479, AOF:3969
Index:705, Earliness:723, Tardiness:2034, Setup:1447, AOF:4204
Index:706, Earliness:659, Tardiness:1581, Setup:1465, AOF:3705
Index:707, Earliness:640, Tardiness:1699, Setup:1437, AOF:3776
Index:708, Earliness:1037, Tardiness:1267, Setup:1349, AOF:3653
Index:709, Earliness:946, Tardiness:1275, Setup:1333, AOF:3554
Index:710, Earliness:899, Tardiness:1749, Setup:1407, AOF:4055
Index:711, Earliness:678, Tardiness:1685, Setup:1469, AOF:3832
Index:712, Earliness:660, Tardiness:1713, Setup:1404, AOF:3777
Index:713, Earliness:880, Tardiness:1368, Setup:1362, AOF:3610
Index:714, Earliness:587, Tardiness:1969, Setup:1408, AOF:3964
Index:715, Earliness:633, Tardiness:1558, Setup:1416, AOF:3607
Index:716, Earliness:764, Tardiness:1728, Setup:1395, AOF:3887
Index:717, Earliness:679, Tardiness:1764, Setup:1313, AOF:3756
Index:718, Earliness:842, Tardiness:1610, Setup:1371, AOF:3823
Index:719, Earliness:1038, Tardiness:1184, Setup:1455, AOF:3677
Index:720, Earliness:873, Tardiness:1418, Setup:1391, AOF:3682
Index:721, Earliness:793, Tardiness:1237, Setup:1409, AOF:3439
Index:722, Earliness:806, Tardiness:1567, Setup:1383, AOF:3756
Index:723, Earliness:676, Tardiness:1621, Setup:1413, AOF:3710
Index:724, Earliness:694, Tardiness:1734, Setup:1331, AOF:3759
Index:725, Earliness:531, Tardiness:1904, Setup:1386, AOF:3821
Index:726, Earliness:1042, Tardiness:1487, Setup:1304, AOF:3833
Index:727, Earliness:669, Tardiness:1910, Setup:1335, AOF:3914
Index:728, Earliness:798, Tardiness:1295, Setup:1430, AOF:3523
Index:729, Earliness:721, Tardiness:1554, Setup:1449, AOF:3724
Index:730, Earliness:624, Tardiness:1715, Setup:1353, AOF:3692
Index:731, Earliness:895, Tardiness:1436, Setup:1318, AOF:3649
Index:732, Earliness:694, Tardiness:1846, Setup:1327, AOF:3867
Index:733, Earliness:855, Tardiness:1652, Setup:1386, AOF:3893
Index:734, Earliness:704, Tardiness:1609, Setup:1430, AOF:3743
Index:735, Earliness:972, Tardiness:1268, Setup:1393, AOF:3633
Index:736, Earliness:813, Tardiness:1490, Setup:1337, AOF:3640
Index:737, Earliness:891, Tardiness:1480, Setup:1346, AOF:3717
Index:738, Earliness:753, Tardiness:1711, Setup:1280, AOF:3744
Index:739, Earliness:794, Tardiness:1368, Setup:1446, AOF:3608
Index:740, Earliness:765, Tardiness:1633, Setup:1367, AOF:3765
Index:741, Earliness:699, Tardiness:1637, Setup:1477, AOF:3813
Index:742, Earliness:718, Tardiness:1857, Setup:1405, AOF:3980
Index:743, Earliness:801, Tardiness:1646, Setup:1420, AOF:3867
Index:744, Earliness:937, Tardiness:1544, Setup:1397, AOF:3878
Index:745, Earliness:739, Tardiness:2038, Setup:1447, AOF:4224
Index:746, Earliness:586, Tardiness:1864, Setup:1372, AOF:3822
Index:747, Earliness:861, Tardiness:1491, Setup:1376, AOF:3728
Index:748, Earliness:732, Tardiness:1672, Setup:1254, AOF:3658
Index:749, Earliness:874, Tardiness:1462, Setup:1393, AOF:3729
