Index:0, Earliness:637, Tardiness:5616, Setup:1060, AOF:7313
Index:1, Earliness:659, Tardiness:5642, Setup:1158, AOF:7459
Index:2, Earliness:564, Tardiness:5691, Setup:1012, AOF:7267
Index:3, Earliness:640, Tardiness:5914, Setup:1086, AOF:7640
Index:4, Earliness:596, Tardiness:5961, Setup:1095, AOF:7652
Index:5, Earliness:570, Tardiness:5926, Setup:1104, AOF:7600
Index:6, Earliness:641, Tardiness:5801, Setup:1130, AOF:7572
Index:7, Earliness:603, Tardiness:5803, Setup:1143, AOF:7549
Index:8, Earliness:744, Tardiness:5684, Setup:1082, AOF:7510
Index:9, Earliness:627, Tardiness:5643, Setup:1129, AOF:7399
Index:10, Earliness:567, Tardiness:5690, Setup:1071, AOF:7328
Index:11, Earliness:654, Tardiness:5727, Setup:1199, AOF:7580
Index:12, Earliness:721, Tardiness:5544, Setup:1089, AOF:7354
Index:13, Earliness:622, Tardiness:5864, Setup:1146, AOF:7632
Index:14, Earliness:532, Tardiness:5644, Setup:1123, AOF:7299
Index:15, Earliness:543, Tardiness:6160, Setup:1218, AOF:7921
Index:16, Earliness:463, Tardiness:6169, Setup:1107, AOF:7739
Index:17, Earliness:520, Tardiness:5621, Setup:1258, AOF:7399
Index:18, Earliness:606, Tardiness:5806, Setup:1052, AOF:7464
Index:19, Earliness:648, Tardiness:5909, Setup:1136, AOF:7693
Index:20, Earliness:579, Tardiness:5673, Setup:1110, AOF:7362
Index:21, Earliness:606, Tardiness:5878, Setup:1129, AOF:7613
Index:22, Earliness:609, Tardiness:5729, Setup:1167, AOF:7505
Index:23, Earliness:619, Tardiness:5673, Setup:1045, AOF:7337
Index:24, Earliness:574, Tardiness:5494, Setup:1156, AOF:7224
Index:25, Earliness:552, Tardiness:5936, Setup:1072, AOF:7560
Index:26, Earliness:562, Tardiness:5657, Setup:1109, AOF:7328
Index:27, Earliness:636, Tardiness:5747, Setup:1091, AOF:7474
Index:28, Earliness:740, Tardiness:5465, Setup:1169, AOF:7374
Index:29, Earliness:549, Tardiness:5638, Setup:1112, AOF:7299
Index:30, Earliness:466, Tardiness:5950, Setup:1283, AOF:7699
Index:31, Earliness:642, Tardiness:5642, Setup:1114, AOF:7398
Index:32, Earliness:517, Tardiness:5944, Setup:1107, AOF:7568
Index:33, Earliness:677, Tardiness:5699, Setup:1035, AOF:7411
Index:34, Earliness:613, Tardiness:5813, Setup:1186, AOF:7612
Index:35, Earliness:648, Tardiness:5765, Setup:1194, AOF:7607
Index:36, Earliness:669, Tardiness:5747, Setup:1096, AOF:7512
Index:37, Earliness:520, Tardiness:6046, Setup:1054, AOF:7620
Index:38, Earliness:550, Tardiness:5807, Setup:1157, AOF:7514
Index:39, Earliness:686, Tardiness:5718, Setup:1155, AOF:7559
Index:40, Earliness:577, Tardiness:5773, Setup:1195, AOF:7545
Index:41, Earliness:648, Tardiness:5725, Setup:1113, AOF:7486
Index:42, Earliness:635, Tardiness:5669, Setup:1110, AOF:7414
Index:43, Earliness:608, Tardiness:5607, Setup:1100, AOF:7315
Index:44, Earliness:673, Tardiness:5371, Setup:1200, AOF:7244
Index:45, Earliness:586, Tardiness:5637, Setup:1090, AOF:7313
Index:46, Earliness:581, Tardiness:5696, Setup:1070, AOF:7347
Index:47, Earliness:563, Tardiness:5726, Setup:1078, AOF:7367
Index:48, Earliness:513, Tardiness:5729, Setup:1150, AOF:7392
Index:49, Earliness:630, Tardiness:5972, Setup:1135, AOF:7737
Index:50, Earliness:545, Tardiness:5745, Setup:1097, AOF:7387
Index:51, Earliness:668, Tardiness:6054, Setup:1241, AOF:7963
Index:52, Earliness:617, Tardiness:5983, Setup:1130, AOF:7730
Index:53, Earliness:613, Tardiness:5655, Setup:1121, AOF:7389
Index:54, Earliness:473, Tardiness:6097, Setup:1081, AOF:7651
Index:55, Earliness:680, Tardiness:5645, Setup:1152, AOF:7477
Index:56, Earliness:603, Tardiness:5662, Setup:1048, AOF:7313
Index:57, Earliness:659, Tardiness:5919, Setup:1135, AOF:7713
Index:58, Earliness:546, Tardiness:5703, Setup:1244, AOF:7493
Index:59, Earliness:663, Tardiness:5659, Setup:1136, AOF:7458
Index:60, Earliness:655, Tardiness:5553, Setup:1158, AOF:7366
Index:61, Earliness:641, Tardiness:5814, Setup:1137, AOF:7592
Index:62, Earliness:621, Tardiness:5741, Setup:1095, AOF:7457
Index:63, Earliness:733, Tardiness:5615, Setup:1038, AOF:7386
Index:64, Earliness:629, Tardiness:5921, Setup:1060, AOF:7610
Index:65, Earliness:561, Tardiness:5978, Setup:1081, AOF:7620
Index:66, Earliness:623, Tardiness:5816, Setup:1065, AOF:7504
Index:67, Earliness:573, Tardiness:5680, Setup:1059, AOF:7312
Index:68, Earliness:653, Tardiness:5574, Setup:1070, AOF:7297
Index:69, Earliness:661, Tardiness:5403, Setup:1154, AOF:7218
Index:70, Earliness:645, Tardiness:5696, Setup:1072, AOF:7413
Index:71, Earliness:496, Tardiness:5685, Setup:1197, AOF:7378
Index:72, Earliness:649, Tardiness:5505, Setup:1202, AOF:7356
Index:73, Earliness:552, Tardiness:5724, Setup:1120, AOF:7396
Index:74, Earliness:528, Tardiness:6056, Setup:1144, AOF:7728
Index:75, Earliness:624, Tardiness:5724, Setup:1132, AOF:7480
Index:76, Earliness:658, Tardiness:5683, Setup:1133, AOF:7474
Index:77, Earliness:723, Tardiness:5791, Setup:1021, AOF:7535
Index:78, Earliness:620, Tardiness:5913, Setup:1122, AOF:7655
Index:79, Earliness:545, Tardiness:5678, Setup:1144, AOF:7367
Index:80, Earliness:565, Tardiness:5862, Setup:980, AOF:7407
Index:81, Earliness:536, Tardiness:5703, Setup:1213, AOF:7452
Index:82, Earliness:602, Tardiness:5569, Setup:1080, AOF:7251
Index:83, Earliness:568, Tardiness:5692, Setup:1086, AOF:7346
Index:84, Earliness:612, Tardiness:5632, Setup:1016, AOF:7260
Index:85, Earliness:521, Tardiness:5754, Setup:1151, AOF:7426
Index:86, Earliness:656, Tardiness:5699, Setup:1046, AOF:7401
Index:87, Earliness:678, Tardiness:5348, Setup:1200, AOF:7226
Index:88, Earliness:613, Tardiness:5550, Setup:1017, AOF:7180
Index:89, Earliness:738, Tardiness:5559, Setup:1001, AOF:7298
Index:90, Earliness:521, Tardiness:5817, Setup:1155, AOF:7493
Index:91, Earliness:666, Tardiness:5677, Setup:1099, AOF:7442
Index:92, Earliness:626, Tardiness:5757, Setup:1146, AOF:7529
Index:93, Earliness:639, Tardiness:5882, Setup:1085, AOF:7606
Index:94, Earliness:594, Tardiness:5562, Setup:1122, AOF:7278
Index:95, Earliness:632, Tardiness:5838, Setup:1089, AOF:7559
Index:96, Earliness:574, Tardiness:5851, Setup:1091, AOF:7516
Index:97, Earliness:553, Tardiness:5840, Setup:1149, AOF:7542
Index:98, Earliness:569, Tardiness:5925, Setup:1067, AOF:7561
Index:99, Earliness:562, Tardiness:5847, Setup:1082, AOF:7491
Index:100, Earliness:701, Tardiness:5636, Setup:1122, AOF:7459
Index:101, Earliness:399, Tardiness:5712, Setup:1214, AOF:7325
Index:102, Earliness:553, Tardiness:5771, Setup:1174, AOF:7498
Index:103, Earliness:616, Tardiness:5652, Setup:1177, AOF:7445
Index:104, Earliness:559, Tardiness:5940, Setup:1013, AOF:7512
Index:105, Earliness:607, Tardiness:5676, Setup:1171, AOF:7454
Index:106, Earliness:573, Tardiness:5559, Setup:1097, AOF:7229
Index:107, Earliness:621, Tardiness:5566, Setup:1136, AOF:7323
Index:108, Earliness:636, Tardiness:5711, Setup:1139, AOF:7486
Index:109, Earliness:570, Tardiness:5654, Setup:1174, AOF:7398
Index:110, Earliness:714, Tardiness:5622, Setup:1039, AOF:7375
Index:111, Earliness:489, Tardiness:5617, Setup:1116, AOF:7222
Index:112, Earliness:659, Tardiness:5522, Setup:1139, AOF:7320
Index:113, Earliness:538, Tardiness:5899, Setup:1165, AOF:7602
Index:114, Earliness:577, Tardiness:5779, Setup:1052, AOF:7408
Index:115, Earliness:629, Tardiness:5759, Setup:1067, AOF:7455
Index:116, Earliness:663, Tardiness:5618, Setup:1104, AOF:7385
Index:117, Earliness:721, Tardiness:5822, Setup:1057, AOF:7600
Index:118, Earliness:758, Tardiness:5411, Setup:1204, AOF:7373
Index:119, Earliness:565, Tardiness:5860, Setup:1177, AOF:7602
Index:120, Earliness:571, Tardiness:5672, Setup:1110, AOF:7353
Index:121, Earliness:578, Tardiness:5656, Setup:1063, AOF:7297
Index:122, Earliness:675, Tardiness:5949, Setup:1200, AOF:7824
Index:123, Earliness:551, Tardiness:6063, Setup:1041, AOF:7655
Index:124, Earliness:669, Tardiness:5677, Setup:1054, AOF:7400
Index:125, Earliness:709, Tardiness:5539, Setup:1157, AOF:7405
Index:126, Earliness:562, Tardiness:5851, Setup:1063, AOF:7476
Index:127, Earliness:616, Tardiness:5742, Setup:1173, AOF:7531
Index:128, Earliness:574, Tardiness:5764, Setup:1162, AOF:7500
Index:129, Earliness:490, Tardiness:5704, Setup:1263, AOF:7457
Index:130, Earliness:629, Tardiness:5817, Setup:1199, AOF:7645
Index:131, Earliness:542, Tardiness:5618, Setup:1217, AOF:7377
Index:132, Earliness:594, Tardiness:5505, Setup:1063, AOF:7162
Index:133, Earliness:702, Tardiness:5639, Setup:1141, AOF:7482
Index:134, Earliness:702, Tardiness:5828, Setup:1193, AOF:7723
Index:135, Earliness:596, Tardiness:5785, Setup:1075, AOF:7456
Index:136, Earliness:595, Tardiness:5925, Setup:1119, AOF:7639
Index:137, Earliness:610, Tardiness:5738, Setup:1117, AOF:7465
Index:138, Earliness:614, Tardiness:5764, Setup:1070, AOF:7448
Index:139, Earliness:579, Tardiness:5892, Setup:1096, AOF:7567
Index:140, Earliness:636, Tardiness:5756, Setup:1110, AOF:7502
Index:141, Earliness:560, Tardiness:5786, Setup:1106, AOF:7452
Index:142, Earliness:663, Tardiness:6001, Setup:1070, AOF:7734
Index:143, Earliness:675, Tardiness:5534, Setup:1183, AOF:7392
Index:144, Earliness:573, Tardiness:5581, Setup:1147, AOF:7301
Index:145, Earliness:629, Tardiness:5709, Setup:1017, AOF:7355
Index:146, Earliness:525, Tardiness:6223, Setup:1103, AOF:7851
Index:147, Earliness:654, Tardiness:5752, Setup:1141, AOF:7547
Index:148, Earliness:628, Tardiness:5703, Setup:1053, AOF:7384
Index:149, Earliness:718, Tardiness:5491, Setup:1108, AOF:7317
Index:150, Earliness:833, Tardiness:5468, Setup:1047, AOF:7348
Index:151, Earliness:627, Tardiness:5575, Setup:1047, AOF:7249
Index:152, Earliness:611, Tardiness:5634, Setup:1093, AOF:7338
Index:153, Earliness:656, Tardiness:5636, Setup:1089, AOF:7381
Index:154, Earliness:447, Tardiness:5947, Setup:1193, AOF:7587
Index:155, Earliness:672, Tardiness:5745, Setup:1003, AOF:7420
Index:156, Earliness:663, Tardiness:5613, Setup:1104, AOF:7380
Index:157, Earliness:536, Tardiness:6218, Setup:1244, AOF:7998
Index:158, Earliness:596, Tardiness:5739, Setup:1074, AOF:7409
Index:159, Earliness:554, Tardiness:5693, Setup:1200, AOF:7447
Index:160, Earliness:601, Tardiness:5472, Setup:1172, AOF:7245
Index:161, Earliness:630, Tardiness:5848, Setup:1204, AOF:7682
Index:162, Earliness:548, Tardiness:5759, Setup:1047, AOF:7354
Index:163, Earliness:635, Tardiness:5561, Setup:1036, AOF:7232
Index:164, Earliness:637, Tardiness:5464, Setup:1070, AOF:7171
Index:165, Earliness:720, Tardiness:5634, Setup:1070, AOF:7424
Index:166, Earliness:526, Tardiness:5855, Setup:1164, AOF:7545
Index:167, Earliness:569, Tardiness:5654, Setup:1030, AOF:7253
Index:168, Earliness:560, Tardiness:5893, Setup:1269, AOF:7722
Index:169, Earliness:470, Tardiness:5760, Setup:1318, AOF:7548
Index:170, Earliness:672, Tardiness:5724, Setup:1128, AOF:7524
Index:171, Earliness:663, Tardiness:5663, Setup:1179, AOF:7505
Index:172, Earliness:610, Tardiness:5811, Setup:1132, AOF:7553
Index:173, Earliness:644, Tardiness:5556, Setup:1139, AOF:7339
Index:174, Earliness:598, Tardiness:5588, Setup:1050, AOF:7236
Index:175, Earliness:676, Tardiness:5565, Setup:1193, AOF:7434
Index:176, Earliness:687, Tardiness:5840, Setup:1058, AOF:7585
Index:177, Earliness:536, Tardiness:5833, Setup:1227, AOF:7596
Index:178, Earliness:664, Tardiness:5869, Setup:1191, AOF:7724
Index:179, Earliness:547, Tardiness:5745, Setup:1117, AOF:7409
Index:180, Earliness:595, Tardiness:5793, Setup:1146, AOF:7534
Index:181, Earliness:530, Tardiness:5933, Setup:1121, AOF:7584
Index:182, Earliness:601, Tardiness:5697, Setup:1153, AOF:7451
Index:183, Earliness:617, Tardiness:5716, Setup:1148, AOF:7481
Index:184, Earliness:642, Tardiness:5576, Setup:1153, AOF:7371
Index:185, Earliness:674, Tardiness:5479, Setup:1153, AOF:7306
Index:186, Earliness:674, Tardiness:5517, Setup:1193, AOF:7384
Index:187, Earliness:635, Tardiness:5585, Setup:1095, AOF:7315
Index:188, Earliness:592, Tardiness:5906, Setup:1008, AOF:7506
Index:189, Earliness:682, Tardiness:5796, Setup:1064, AOF:7542
Index:190, Earliness:745, Tardiness:5595, Setup:959, AOF:7299
Index:191, Earliness:646, Tardiness:5801, Setup:1210, AOF:7657
Index:192, Earliness:603, Tardiness:5844, Setup:1113, AOF:7560
Index:193, Earliness:614, Tardiness:5600, Setup:1247, AOF:7461
Index:194, Earliness:538, Tardiness:5930, Setup:1118, AOF:7586
Index:195, Earliness:621, Tardiness:5629, Setup:1167, AOF:7417
Index:196, Earliness:624, Tardiness:5781, Setup:1055, AOF:7460
Index:197, Earliness:637, Tardiness:5719, Setup:1130, AOF:7486
Index:198, Earliness:527, Tardiness:5526, Setup:1149, AOF:7202
Index:199, Earliness:711, Tardiness:5647, Setup:1118, AOF:7476
Index:200, Earliness:634, Tardiness:5966, Setup:1085, AOF:7685
Index:201, Earliness:544, Tardiness:5793, Setup:1087, AOF:7424
Index:202, Earliness:668, Tardiness:5448, Setup:1255, AOF:7371
Index:203, Earliness:669, Tardiness:5568, Setup:961, AOF:7198
Index:204, Earliness:519, Tardiness:5485, Setup:1095, AOF:7099
Index:205, Earliness:686, Tardiness:5789, Setup:1166, AOF:7641
Index:206, Earliness:716, Tardiness:5632, Setup:1120, AOF:7468
Index:207, Earliness:640, Tardiness:5897, Setup:1141, AOF:7678
Index:208, Earliness:595, Tardiness:5724, Setup:1123, AOF:7442
Index:209, Earliness:535, Tardiness:5824, Setup:1145, AOF:7504
Index:210, Earliness:585, Tardiness:5775, Setup:1131, AOF:7491
Index:211, Earliness:651, Tardiness:5662, Setup:1053, AOF:7366
Index:212, Earliness:645, Tardiness:5574, Setup:1160, AOF:7379
Index:213, Earliness:712, Tardiness:5477, Setup:1191, AOF:7380
Index:214, Earliness:674, Tardiness:5827, Setup:1163, AOF:7664
Index:215, Earliness:591, Tardiness:5776, Setup:1072, AOF:7439
Index:216, Earliness:661, Tardiness:5545, Setup:1132, AOF:7338
Index:217, Earliness:609, Tardiness:5708, Setup:1159, AOF:7476
Index:218, Earliness:577, Tardiness:6074, Setup:1205, AOF:7856
Index:219, Earliness:635, Tardiness:5659, Setup:1178, AOF:7472
Index:220, Earliness:620, Tardiness:5742, Setup:1218, AOF:7580
Index:221, Earliness:687, Tardiness:5458, Setup:1116, AOF:7261
Index:222, Earliness:623, Tardiness:5731, Setup:1178, AOF:7532
Index:223, Earliness:591, Tardiness:5611, Setup:1177, AOF:7379
Index:224, Earliness:659, Tardiness:5508, Setup:1212, AOF:7379
Index:225, Earliness:603, Tardiness:5735, Setup:1181, AOF:7519
Index:226, Earliness:470, Tardiness:5720, Setup:1082, AOF:7272
Index:227, Earliness:540, Tardiness:5713, Setup:1062, AOF:7315
Index:228, Earliness:656, Tardiness:5826, Setup:1115, AOF:7597
Index:229, Earliness:475, Tardiness:5957, Setup:1128, AOF:7560
Index:230, Earliness:452, Tardiness:5928, Setup:1144, AOF:7524
Index:231, Earliness:600, Tardiness:5711, Setup:1102, AOF:7413
Index:232, Earliness:704, Tardiness:5975, Setup:1182, AOF:7861
Index:233, Earliness:628, Tardiness:5824, Setup:1169, AOF:7621
Index:234, Earliness:608, Tardiness:5547, Setup:1133, AOF:7288
Index:235, Earliness:587, Tardiness:5780, Setup:1110, AOF:7477
Index:236, Earliness:675, Tardiness:5829, Setup:1109, AOF:7613
Index:237, Earliness:588, Tardiness:5697, Setup:1098, AOF:7383
Index:238, Earliness:611, Tardiness:6022, Setup:1204, AOF:7837
Index:239, Earliness:625, Tardiness:5795, Setup:1028, AOF:7448
Index:240, Earliness:653, Tardiness:5858, Setup:1166, AOF:7677
Index:241, Earliness:610, Tardiness:5827, Setup:990, AOF:7427
Index:242, Earliness:734, Tardiness:5628, Setup:1064, AOF:7426
Index:243, Earliness:669, Tardiness:5646, Setup:1116, AOF:7431
Index:244, Earliness:533, Tardiness:5699, Setup:1216, AOF:7448
Index:245, Earliness:638, Tardiness:5972, Setup:1079, AOF:7689
Index:246, Earliness:686, Tardiness:5613, Setup:1186, AOF:7485
Index:247, Earliness:576, Tardiness:5562, Setup:1099, AOF:7237
Index:248, Earliness:568, Tardiness:5675, Setup:1082, AOF:7325
Index:249, Earliness:599, Tardiness:5806, Setup:1103, AOF:7508
Index:250, Earliness:636, Tardiness:5648, Setup:1041, AOF:7325
Index:251, Earliness:545, Tardiness:5656, Setup:1072, AOF:7273
Index:252, Earliness:642, Tardiness:5839, Setup:1179, AOF:7660
Index:253, Earliness:515, Tardiness:5670, Setup:1073, AOF:7258
Index:254, Earliness:654, Tardiness:5731, Setup:1061, AOF:7446
Index:255, Earliness:606, Tardiness:5624, Setup:1102, AOF:7332
Index:256, Earliness:552, Tardiness:5692, Setup:1037, AOF:7281
Index:257, Earliness:609, Tardiness:5720, Setup:1009, AOF:7338
Index:258, Earliness:658, Tardiness:5764, Setup:1190, AOF:7612
Index:259, Earliness:644, Tardiness:5529, Setup:1076, AOF:7249
Index:260, Earliness:661, Tardiness:5677, Setup:1058, AOF:7396
Index:261, Earliness:579, Tardiness:5655, Setup:1111, AOF:7345
Index:262, Earliness:644, Tardiness:5752, Setup:1163, AOF:7559
Index:263, Earliness:725, Tardiness:5755, Setup:1139, AOF:7619
Index:264, Earliness:648, Tardiness:5576, Setup:1086, AOF:7310
Index:265, Earliness:678, Tardiness:5871, Setup:1093, AOF:7642
Index:266, Earliness:629, Tardiness:5709, Setup:1033, AOF:7371
Index:267, Earliness:696, Tardiness:5731, Setup:1046, AOF:7473
Index:268, Earliness:521, Tardiness:5862, Setup:1153, AOF:7536
Index:269, Earliness:666, Tardiness:5732, Setup:1082, AOF:7480
Index:270, Earliness:541, Tardiness:5603, Setup:1168, AOF:7312
Index:271, Earliness:625, Tardiness:5705, Setup:1091, AOF:7421
Index:272, Earliness:637, Tardiness:5644, Setup:1169, AOF:7450
Index:273, Earliness:610, Tardiness:5638, Setup:1083, AOF:7331
Index:274, Earliness:685, Tardiness:5789, Setup:1120, AOF:7594
Index:275, Earliness:613, Tardiness:5767, Setup:1264, AOF:7644
Index:276, Earliness:702, Tardiness:5881, Setup:1141, AOF:7724
Index:277, Earliness:573, Tardiness:5860, Setup:1096, AOF:7529
Index:278, Earliness:605, Tardiness:5754, Setup:1157, AOF:7516
Index:279, Earliness:545, Tardiness:5565, Setup:1208, AOF:7318
Index:280, Earliness:643, Tardiness:5681, Setup:1042, AOF:7366
Index:281, Earliness:589, Tardiness:5795, Setup:1147, AOF:7531
Index:282, Earliness:560, Tardiness:5980, Setup:1089, AOF:7629
Index:283, Earliness:613, Tardiness:6038, Setup:1165, AOF:7816
Index:284, Earliness:697, Tardiness:5974, Setup:1108, AOF:7779
Index:285, Earliness:669, Tardiness:5476, Setup:1044, AOF:7189
Index:286, Earliness:644, Tardiness:5944, Setup:1235, AOF:7823
Index:287, Earliness:698, Tardiness:5647, Setup:1190, AOF:7535
Index:288, Earliness:691, Tardiness:5773, Setup:1198, AOF:7662
Index:289, Earliness:540, Tardiness:5812, Setup:1183, AOF:7535
Index:290, Earliness:675, Tardiness:5664, Setup:1132, AOF:7471
Index:291, Earliness:637, Tardiness:5757, Setup:1146, AOF:7540
Index:292, Earliness:634, Tardiness:5589, Setup:1114, AOF:7337
Index:293, Earliness:570, Tardiness:5570, Setup:1093, AOF:7233
Index:294, Earliness:487, Tardiness:5689, Setup:1231, AOF:7407
Index:295, Earliness:572, Tardiness:5837, Setup:1260, AOF:7669
Index:296, Earliness:557, Tardiness:5672, Setup:1181, AOF:7410
Index:297, Earliness:598, Tardiness:5713, Setup:1074, AOF:7385
Index:298, Earliness:636, Tardiness:5682, Setup:1068, AOF:7386
Index:299, Earliness:574, Tardiness:5705, Setup:1126, AOF:7405
Index:300, Earliness:582, Tardiness:5879, Setup:1213, AOF:7674
Index:301, Earliness:585, Tardiness:5769, Setup:1082, AOF:7436
Index:302, Earliness:696, Tardiness:5754, Setup:1089, AOF:7539
Index:303, Earliness:695, Tardiness:5633, Setup:1082, AOF:7410
Index:304, Earliness:661, Tardiness:5698, Setup:1050, AOF:7409
Index:305, Earliness:699, Tardiness:5722, Setup:1014, AOF:7435
Index:306, Earliness:483, Tardiness:5958, Setup:1084, AOF:7525
Index:307, Earliness:562, Tardiness:5859, Setup:1167, AOF:7588
Index:308, Earliness:609, Tardiness:5737, Setup:1091, AOF:7437
Index:309, Earliness:599, Tardiness:5876, Setup:1107, AOF:7582
Index:310, Earliness:509, Tardiness:5902, Setup:1311, AOF:7722
Index:311, Earliness:683, Tardiness:5630, Setup:1033, AOF:7346
Index:312, Earliness:519, Tardiness:5765, Setup:1136, AOF:7420
Index:313, Earliness:665, Tardiness:5602, Setup:1016, AOF:7283
Index:314, Earliness:614, Tardiness:5788, Setup:1015, AOF:7417
Index:315, Earliness:644, Tardiness:5841, Setup:1028, AOF:7513
Index:316, Earliness:461, Tardiness:5589, Setup:1154, AOF:7204
Index:317, Earliness:604, Tardiness:5565, Setup:987, AOF:7156
Index:318, Earliness:650, Tardiness:5619, Setup:1088, AOF:7357
Index:319, Earliness:572, Tardiness:6015, Setup:999, AOF:7586
Index:320, Earliness:527, Tardiness:5770, Setup:1212, AOF:7509
Index:321, Earliness:607, Tardiness:5829, Setup:1196, AOF:7632
Index:322, Earliness:561, Tardiness:5585, Setup:1147, AOF:7293
Index:323, Earliness:588, Tardiness:5791, Setup:1024, AOF:7403
Index:324, Earliness:695, Tardiness:5620, Setup:1143, AOF:7458
Index:325, Earliness:605, Tardiness:5720, Setup:1109, AOF:7434
Index:326, Earliness:498, Tardiness:5506, Setup:1144, AOF:7148
Index:327, Earliness:644, Tardiness:5727, Setup:1130, AOF:7501
Index:328, Earliness:621, Tardiness:5728, Setup:1165, AOF:7514
Index:329, Earliness:667, Tardiness:5630, Setup:1085, AOF:7382
Index:330, Earliness:418, Tardiness:5786, Setup:1131, AOF:7335
Index:331, Earliness:590, Tardiness:5705, Setup:1202, AOF:7497
Index:332, Earliness:479, Tardiness:5859, Setup:1143, AOF:7481
Index:333, Earliness:645, Tardiness:5488, Setup:1165, AOF:7298
Index:334, Earliness:578, Tardiness:5806, Setup:1131, AOF:7515
Index:335, Earliness:614, Tardiness:5560, Setup:1055, AOF:7229
Index:336, Earliness:500, Tardiness:5618, Setup:1124, AOF:7242
Index:337, Earliness:623, Tardiness:5625, Setup:1151, AOF:7399
Index:338, Earliness:522, Tardiness:5571, Setup:1056, AOF:7149
Index:339, Earliness:618, Tardiness:5960, Setup:1204, AOF:7782
Index:340, Earliness:566, Tardiness:5643, Setup:1176, AOF:7385
Index:341, Earliness:575, Tardiness:5668, Setup:1134, AOF:7377
Index:342, Earliness:565, Tardiness:5893, Setup:1123, AOF:7581
Index:343, Earliness:624, Tardiness:6041, Setup:1169, AOF:7834
Index:344, Earliness:532, Tardiness:5677, Setup:1122, AOF:7331
Index:345, Earliness:622, Tardiness:5670, Setup:1099, AOF:7391
Index:346, Earliness:505, Tardiness:5746, Setup:1133, AOF:7384
Index:347, Earliness:553, Tardiness:5499, Setup:1190, AOF:7242
Index:348, Earliness:599, Tardiness:5867, Setup:989, AOF:7455
Index:349, Earliness:677, Tardiness:5569, Setup:1144, AOF:7390
Index:350, Earliness:563, Tardiness:5897, Setup:1095, AOF:7555
Index:351, Earliness:733, Tardiness:5735, Setup:1167, AOF:7635
Index:352, Earliness:690, Tardiness:5644, Setup:1122, AOF:7456
Index:353, Earliness:686, Tardiness:5442, Setup:1153, AOF:7281
Index:354, Earliness:600, Tardiness:5675, Setup:996, AOF:7271
Index:355, Earliness:599, Tardiness:5888, Setup:1126, AOF:7613
Index:356, Earliness:608, Tardiness:5730, Setup:1073, AOF:7411
Index:357, Earliness:720, Tardiness:5801, Setup:1131, AOF:7652
Index:358, Earliness:506, Tardiness:5749, Setup:1188, AOF:7443
Index:359, Earliness:577, Tardiness:5651, Setup:1185, AOF:7413
Index:360, Earliness:496, Tardiness:5749, Setup:1120, AOF:7365
Index:361, Earliness:629, Tardiness:5661, Setup:1169, AOF:7459
Index:362, Earliness:523, Tardiness:5825, Setup:997, AOF:7345
Index:363, Earliness:654, Tardiness:5816, Setup:1128, AOF:7598
Index:364, Earliness:598, Tardiness:5998, Setup:1091, AOF:7687
Index:365, Earliness:679, Tardiness:5751, Setup:1140, AOF:7570
Index:366, Earliness:731, Tardiness:5530, Setup:1175, AOF:7436
Index:367, Earliness:563, Tardiness:5811, Setup:1126, AOF:7500
Index:368, Earliness:665, Tardiness:5485, Setup:1106, AOF:7256
Index:369, Earliness:554, Tardiness:5652, Setup:1086, AOF:7292
Index:370, Earliness:663, Tardiness:5573, Setup:1137, AOF:7373
Index:371, Earliness:589, Tardiness:5619, Setup:1238, AOF:7446
Index:372, Earliness:612, Tardiness:5833, Setup:1123, AOF:7568
Index:373, Earliness:583, Tardiness:5628, Setup:1147, AOF:7358
Index:374, Earliness:597, Tardiness:5668, Setup:1076, AOF:7341
Index:375, Earliness:600, Tardiness:5811, Setup:1118, AOF:7529
Index:376, Earliness:744, Tardiness:5565, Setup:1154, AOF:7463
Index:377, Earliness:634, Tardiness:5642, Setup:1120, AOF:7396
Index:378, Earliness:499, Tardiness:5794, Setup:1175, AOF:7468
Index:379, Earliness:610, Tardiness:5675, Setup:1208, AOF:7493
Index:380, Earliness:510, Tardiness:5625, Setup:1136, AOF:7271
Index:381, Earliness:621, Tardiness:5618, Setup:1076, AOF:7315
Index:382, Earliness:688, Tardiness:5959, Setup:1099, AOF:7746
Index:383, Earliness:679, Tardiness:5593, Setup:1065, AOF:7337
Index:384, Earliness:624, Tardiness:5595, Setup:1116, AOF:7335
Index:385, Earliness:697, Tardiness:5668, Setup:1156, AOF:7521
Index:386, Earliness:549, Tardiness:5712, Setup:1086, AOF:7347
Index:387, Earliness:563, Tardiness:5864, Setup:1049, AOF:7476
Index:388, Earliness:643, Tardiness:5758, Setup:1195, AOF:7596
Index:389, Earliness:522, Tardiness:5861, Setup:1173, AOF:7556
Index:390, Earliness:646, Tardiness:5544, Setup:1105, AOF:7295
Index:391, Earliness:660, Tardiness:5806, Setup:1077, AOF:7543
Index:392, Earliness:709, Tardiness:5723, Setup:1156, AOF:7588
Index:393, Earliness:545, Tardiness:5840, Setup:1136, AOF:7521
Index:394, Earliness:649, Tardiness:5772, Setup:1014, AOF:7435
Index:395, Earliness:489, Tardiness:5893, Setup:1099, AOF:7481
Index:396, Earliness:527, Tardiness:6070, Setup:1222, AOF:7819
Index:397, Earliness:550, Tardiness:6034, Setup:1106, AOF:7690
Index:398, Earliness:649, Tardiness:5833, Setup:1073, AOF:7555
Index:399, Earliness:693, Tardiness:5597, Setup:1132, AOF:7422
Index:400, Earliness:668, Tardiness:5749, Setup:1095, AOF:7512
Index:401, Earliness:601, Tardiness:5941, Setup:1178, AOF:7720
Index:402, Earliness:687, Tardiness:5626, Setup:1165, AOF:7478
Index:403, Earliness:707, Tardiness:5582, Setup:1084, AOF:7373
Index:404, Earliness:541, Tardiness:5662, Setup:1134, AOF:7337
Index:405, Earliness:616, Tardiness:5598, Setup:1044, AOF:7258
Index:406, Earliness:620, Tardiness:5922, Setup:1160, AOF:7702
Index:407, Earliness:586, Tardiness:5813, Setup:1207, AOF:7606
Index:408, Earliness:627, Tardiness:5757, Setup:1014, AOF:7398
Index:409, Earliness:594, Tardiness:5781, Setup:1116, AOF:7491
Index:410, Earliness:606, Tardiness:6292, Setup:1165, AOF:8063
Index:411, Earliness:504, Tardiness:5695, Setup:1096, AOF:7295
Index:412, Earliness:506, Tardiness:5652, Setup:1139, AOF:7297
Index:413, Earliness:570, Tardiness:6018, Setup:1091, AOF:7679
Index:414, Earliness:621, Tardiness:5721, Setup:1126, AOF:7468
Index:415, Earliness:704, Tardiness:5758, Setup:1197, AOF:7659
Index:416, Earliness:557, Tardiness:5815, Setup:1173, AOF:7545
Index:417, Earliness:548, Tardiness:5837, Setup:1110, AOF:7495
Index:418, Earliness:468, Tardiness:5803, Setup:1190, AOF:7461
Index:419, Earliness:626, Tardiness:5559, Setup:1115, AOF:7300
Index:420, Earliness:735, Tardiness:5742, Setup:1202, AOF:7679
Index:421, Earliness:559, Tardiness:5563, Setup:1126, AOF:7248
Index:422, Earliness:639, Tardiness:5593, Setup:1037, AOF:7269
Index:423, Earliness:695, Tardiness:5679, Setup:1171, AOF:7545
Index:424, Earliness:683, Tardiness:5675, Setup:1149, AOF:7507
Index:425, Earliness:599, Tardiness:5665, Setup:1209, AOF:7473
Index:426, Earliness:658, Tardiness:5725, Setup:1100, AOF:7483
Index:427, Earliness:643, Tardiness:5593, Setup:1089, AOF:7325
Index:428, Earliness:614, Tardiness:5682, Setup:1125, AOF:7421
Index:429, Earliness:694, Tardiness:5835, Setup:1111, AOF:7640
Index:430, Earliness:658, Tardiness:5746, Setup:1073, AOF:7477
Index:431, Earliness:491, Tardiness:5650, Setup:1161, AOF:7302
Index:432, Earliness:594, Tardiness:5565, Setup:1133, AOF:7292
Index:433, Earliness:653, Tardiness:6113, Setup:1201, AOF:7967
Index:434, Earliness:664, Tardiness:5797, Setup:964, AOF:7425
Index:435, Earliness:575, Tardiness:5865, Setup:1182, AOF:7622
Index:436, Earliness:620, Tardiness:5850, Setup:1059, AOF:7529
Index:437, Earliness:654, Tardiness:5653, Setup:1085, AOF:7392
Index:438, Earliness:649, Tardiness:5704, Setup:1109, AOF:7462
Index:439, Earliness:547, Tardiness:5473, Setup:1149, AOF:7169
Index:440, Earliness:658, Tardiness:5634, Setup:1045, AOF:7337
Index:441, Earliness:569, Tardiness:5548, Setup:1125, AOF:7242
Index:442, Earliness:560, Tardiness:5672, Setup:1206, AOF:7438
Index:443, Earliness:589, Tardiness:5545, Setup:1153, AOF:7287
Index:444, Earliness:716, Tardiness:5669, Setup:1135, AOF:7520
Index:445, Earliness:567, Tardiness:5583, Setup:1176, AOF:7326
Index:446, Earliness:665, Tardiness:5908, Setup:1225, AOF:7798
Index:447, Earliness:620, Tardiness:5971, Setup:1143, AOF:7734
Index:448, Earliness:531, Tardiness:5632, Setup:1106, AOF:7269
Index:449, Earliness:622, Tardiness:5864, Setup:1133, AOF:7619
Index:450, Earliness:564, Tardiness:5907, Setup:1145, AOF:7616
Index:451, Earliness:679, Tardiness:5822, Setup:1141, AOF:7642
Index:452, Earliness:607, Tardiness:5603, Setup:1165, AOF:7375
Index:453, Earliness:656, Tardiness:5720, Setup:1139, AOF:7515
Index:454, Earliness:560, Tardiness:5608, Setup:1131, AOF:7299
Index:455, Earliness:520, Tardiness:5919, Setup:1229, AOF:7668
Index:456, Earliness:627, Tardiness:5703, Setup:1090, AOF:7420
Index:457, Earliness:629, Tardiness:5607, Setup:1034, AOF:7270
Index:458, Earliness:543, Tardiness:5792, Setup:1133, AOF:7468
Index:459, Earliness:626, Tardiness:5487, Setup:1146, AOF:7259
Index:460, Earliness:608, Tardiness:5765, Setup:1195, AOF:7568
Index:461, Earliness:627, Tardiness:5761, Setup:1128, AOF:7516
Index:462, Earliness:635, Tardiness:5591, Setup:1064, AOF:7290
Index:463, Earliness:660, Tardiness:5905, Setup:1177, AOF:7742
Index:464, Earliness:637, Tardiness:5789, Setup:1067, AOF:7493
Index:465, Earliness:641, Tardiness:5510, Setup:1090, AOF:7241
Index:466, Earliness:639, Tardiness:6142, Setup:1163, AOF:7944
Index:467, Earliness:587, Tardiness:5668, Setup:1071, AOF:7326
Index:468, Earliness:620, Tardiness:5910, Setup:1291, AOF:7821
Index:469, Earliness:653, Tardiness:5813, Setup:1090, AOF:7556
Index:470, Earliness:557, Tardiness:5568, Setup:1191, AOF:7316
Index:471, Earliness:616, Tardiness:5839, Setup:1159, AOF:7614
Index:472, Earliness:692, Tardiness:5791, Setup:1119, AOF:7602
Index:473, Earliness:525, Tardiness:5807, Setup:1083, AOF:7415
Index:474, Earliness:545, Tardiness:5660, Setup:1048, AOF:7253
Index:475, Earliness:613, Tardiness:5825, Setup:1042, AOF:7480
Index:476, Earliness:598, Tardiness:5582, Setup:1016, AOF:7196
Index:477, Earliness:586, Tardiness:5765, Setup:1252, AOF:7603
Index:478, Earliness:699, Tardiness:5639, Setup:1122, AOF:7460
Index:479, Earliness:521, Tardiness:5858, Setup:1115, AOF:7494
Index:480, Earliness:545, Tardiness:5779, Setup:1187, AOF:7511
Index:481, Earliness:629, Tardiness:5724, Setup:1082, AOF:7435
Index:482, Earliness:685, Tardiness:5779, Setup:1129, AOF:7593
Index:483, Earliness:577, Tardiness:6049, Setup:1187, AOF:7813
Index:484, Earliness:599, Tardiness:5760, Setup:1180, AOF:7539
Index:485, Earliness:471, Tardiness:5745, Setup:1134, AOF:7350
Index:486, Earliness:584, Tardiness:5981, Setup:1152, AOF:7717
Index:487, Earliness:581, Tardiness:5818, Setup:1053, AOF:7452
Index:488, Earliness:625, Tardiness:5801, Setup:1159, AOF:7585
Index:489, Earliness:597, Tardiness:5719, Setup:1062, AOF:7378
Index:490, Earliness:683, Tardiness:5413, Setup:1039, AOF:7135
Index:491, Earliness:577, Tardiness:5603, Setup:1142, AOF:7322
Index:492, Earliness:590, Tardiness:5581, Setup:1032, AOF:7203
Index:493, Earliness:564, Tardiness:5682, Setup:1219, AOF:7465
Index:494, Earliness:572, Tardiness:5625, Setup:1031, AOF:7228
Index:495, Earliness:576, Tardiness:5666, Setup:1037, AOF:7279
Index:496, Earliness:555, Tardiness:5551, Setup:1088, AOF:7194
Index:497, Earliness:515, Tardiness:6019, Setup:1136, AOF:7670
Index:498, Earliness:663, Tardiness:5754, Setup:1109, AOF:7526
Index:499, Earliness:546, Tardiness:5814, Setup:1100, AOF:7460
Index:500, Earliness:584, Tardiness:5793, Setup:1106, AOF:7483
Index:501, Earliness:561, Tardiness:5586, Setup:1146, AOF:7293
Index:502, Earliness:632, Tardiness:5724, Setup:1129, AOF:7485
Index:503, Earliness:591, Tardiness:5630, Setup:1091, AOF:7312
Index:504, Earliness:555, Tardiness:5729, Setup:1153, AOF:7437
Index:505, Earliness:662, Tardiness:5673, Setup:1098, AOF:7433
Index:506, Earliness:594, Tardiness:5945, Setup:1317, AOF:7856
Index:507, Earliness:666, Tardiness:5553, Setup:1052, AOF:7271
Index:508, Earliness:596, Tardiness:5830, Setup:1074, AOF:7500
Index:509, Earliness:607, Tardiness:5680, Setup:1099, AOF:7386
Index:510, Earliness:679, Tardiness:5546, Setup:1115, AOF:7340
Index:511, Earliness:679, Tardiness:5580, Setup:1099, AOF:7358
Index:512, Earliness:652, Tardiness:5861, Setup:1145, AOF:7658
Index:513, Earliness:549, Tardiness:5931, Setup:1176, AOF:7656
Index:514, Earliness:676, Tardiness:5776, Setup:1090, AOF:7542
Index:515, Earliness:518, Tardiness:5489, Setup:1205, AOF:7212
Index:516, Earliness:709, Tardiness:5581, Setup:1220, AOF:7510
Index:517, Earliness:647, Tardiness:5517, Setup:1048, AOF:7212
Index:518, Earliness:638, Tardiness:5699, Setup:1131, AOF:7468
Index:519, Earliness:553, Tardiness:6042, Setup:1189, AOF:7784
Index:520, Earliness:547, Tardiness:5857, Setup:1106, AOF:7510
Index:521, Earliness:650, Tardiness:5662, Setup:1096, AOF:7408
Index:522, Earliness:710, Tardiness:5605, Setup:1089, AOF:7404
Index:523, Earliness:583, Tardiness:5827, Setup:1043, AOF:7453
Index:524, Earliness:597, Tardiness:5808, Setup:980, AOF:7385
Index:525, Earliness:632, Tardiness:5728, Setup:1140, AOF:7500
Index:526, Earliness:703, Tardiness:5803, Setup:959, AOF:7465
Index:527, Earliness:543, Tardiness:5867, Setup:1142, AOF:7552
Index:528, Earliness:650, Tardiness:5797, Setup:1135, AOF:7582
Index:529, Earliness:598, Tardiness:5821, Setup:1119, AOF:7538
Index:530, Earliness:754, Tardiness:5547, Setup:1008, AOF:7309
Index:531, Earliness:623, Tardiness:5829, Setup:1077, AOF:7529
Index:532, Earliness:605, Tardiness:5584, Setup:1108, AOF:7297
Index:533, Earliness:610, Tardiness:5590, Setup:1119, AOF:7319
Index:534, Earliness:618, Tardiness:5764, Setup:1135, AOF:7517
Index:535, Earliness:491, Tardiness:6156, Setup:1189, AOF:7836
Index:536, Earliness:558, Tardiness:5926, Setup:1095, AOF:7579
Index:537, Earliness:722, Tardiness:5660, Setup:1123, AOF:7505
Index:538, Earliness:708, Tardiness:5711, Setup:1207, AOF:7626
Index:539, Earliness:677, Tardiness:5910, Setup:1114, AOF:7701
Index:540, Earliness:652, Tardiness:5664, Setup:1133, AOF:7449
Index:541, Earliness:536, Tardiness:5862, Setup:1130, AOF:7528
Index:542, Earliness:599, Tardiness:5573, Setup:1087, AOF:7259
Index:543, Earliness:606, Tardiness:5777, Setup:1192, AOF:7575
Index:544, Earliness:647, Tardiness:5575, Setup:1113, AOF:7335
Index:545, Earliness:500, Tardiness:5883, Setup:1063, AOF:7446
Index:546, Earliness:569, Tardiness:5957, Setup:1189, AOF:7715
Index:547, Earliness:644, Tardiness:5626, Setup:1165, AOF:7435
Index:548, Earliness:570, Tardiness:5563, Setup:1065, AOF:7198
Index:549, Earliness:599, Tardiness:5812, Setup:1175, AOF:7586
Index:550, Earliness:673, Tardiness:5897, Setup:1173, AOF:7743
Index:551, Earliness:630, Tardiness:5565, Setup:1103, AOF:7298
Index:552, Earliness:506, Tardiness:5920, Setup:1130, AOF:7556
Index:553, Earliness:542, Tardiness:5831, Setup:1122, AOF:7495
Index:554, Earliness:629, Tardiness:5704, Setup:1044, AOF:7377
Index:555, Earliness:675, Tardiness:5628, Setup:1062, AOF:7365
Index:556, Earliness:616, Tardiness:5704, Setup:1063, AOF:7383
Index:557, Earliness:580, Tardiness:5859, Setup:1138, AOF:7577
Index:558, Earliness:549, Tardiness:6003, Setup:1118, AOF:7670
Index:559, Earliness:571, Tardiness:5666, Setup:1038, AOF:7275
Index:560, Earliness:647, Tardiness:5788, Setup:1154, AOF:7589
Index:561, Earliness:653, Tardiness:5668, Setup:1171, AOF:7492
Index:562, Earliness:620, Tardiness:5878, Setup:1157, AOF:7655
Index:563, Earliness:653, Tardiness:5573, Setup:1183, AOF:7409
Index:564, Earliness:713, Tardiness:5543, Setup:1247, AOF:7503
Index:565, Earliness:689, Tardiness:5750, Setup:1086, AOF:7525
Index:566, Earliness:494, Tardiness:5556, Setup:1098, AOF:7148
Index:567, Earliness:530, Tardiness:5590, Setup:1166, AOF:7286
Index:568, Earliness:648, Tardiness:6009, Setup:1197, AOF:7854
Index:569, Earliness:467, Tardiness:5670, Setup:1119, AOF:7256
Index:570, Earliness:510, Tardiness:5681, Setup:1111, AOF:7302
Index:571, Earliness:569, Tardiness:5520, Setup:1171, AOF:7260
Index:572, Earliness:745, Tardiness:5545, Setup:1201, AOF:7491
Index:573, Earliness:586, Tardiness:5828, Setup:1112, AOF:7526
Index:574, Earliness:703, Tardiness:5788, Setup:1145, AOF:7636
Index:575, Earliness:716, Tardiness:5611, Setup:1002, AOF:7329
Index:576, Earliness:546, Tardiness:5882, Setup:1030, AOF:7458
Index:577, Earliness:519, Tardiness:5922, Setup:1119, AOF:7560
Index:578, Earliness:570, Tardiness:5568, Setup:1084, AOF:7222
Index:579, Earliness:535, Tardiness:5464, Setup:1174, AOF:7173
Index:580, Earliness:598, Tardiness:5896, Setup:1159, AOF:7653
Index:581, Earliness:635, Tardiness:5588, Setup:1113, AOF:7336
Index:582, Earliness:654, Tardiness:5592, Setup:1042, AOF:7288
Index:583, Earliness:594, Tardiness:5732, Setup:1153, AOF:7479
Index:584, Earliness:583, Tardiness:5703, Setup:1061, AOF:7347
Index:585, Earliness:603, Tardiness:5709, Setup:1157, AOF:7469
Index:586, Earliness:616, Tardiness:5646, Setup:1118, AOF:7380
Index:587, Earliness:520, Tardiness:5948, Setup:1108, AOF:7576
Index:588, Earliness:532, Tardiness:5626, Setup:1162, AOF:7320
Index:589, Earliness:602, Tardiness:5885, Setup:1204, AOF:7691
Index:590, Earliness:688, Tardiness:6010, Setup:1196, AOF:7894
Index:591, Earliness:625, Tardiness:5809, Setup:1156, AOF:7590
Index:592, Earliness:596, Tardiness:5609, Setup:1199, AOF:7404
Index:593, Earliness:589, Tardiness:5946, Setup:1094, AOF:7629
Index:594, Earliness:678, Tardiness:5790, Setup:1167, AOF:7635
Index:595, Earliness:642, Tardiness:5872, Setup:1198, AOF:7712
Index:596, Earliness:609, Tardiness:5888, Setup:1034, AOF:7531
Index:597, Earliness:615, Tardiness:5698, Setup:1012, AOF:7325
Index:598, Earliness:686, Tardiness:5681, Setup:1015, AOF:7382
Index:599, Earliness:572, Tardiness:5850, Setup:1139, AOF:7561
Index:600, Earliness:609, Tardiness:5718, Setup:1154, AOF:7481
Index:601, Earliness:566, Tardiness:5750, Setup:1139, AOF:7455
Index:602, Earliness:740, Tardiness:5432, Setup:1029, AOF:7201
Index:603, Earliness:646, Tardiness:5812, Setup:1119, AOF:7577
Index:604, Earliness:558, Tardiness:5801, Setup:1105, AOF:7464
Index:605, Earliness:722, Tardiness:5576, Setup:1018, AOF:7316
Index:606, Earliness:742, Tardiness:5569, Setup:1139, AOF:7450
Index:607, Earliness:693, Tardiness:5546, Setup:1086, AOF:7325
Index:608, Earliness:617, Tardiness:5588, Setup:1149, AOF:7354
Index:609, Earliness:585, Tardiness:5719, Setup:1185, AOF:7489
Index:610, Earliness:577, Tardiness:5807, Setup:1160, AOF:7544
Index:611, Earliness:735, Tardiness:5732, Setup:1140, AOF:7607
Index:612, Earliness:734, Tardiness:5627, Setup:1122, AOF:7483
Index:613, Earliness:564, Tardiness:5768, Setup:1113, AOF:7445
Index:614, Earliness:490, Tardiness:5805, Setup:1119, AOF:7414
Index:615, Earliness:675, Tardiness:5690, Setup:1059, AOF:7424
Index:616, Earliness:576, Tardiness:5680, Setup:1084, AOF:7340
Index:617, Earliness:581, Tardiness:5899, Setup:1164, AOF:7644
Index:618, Earliness:648, Tardiness:6177, Setup:1217, AOF:8042
Index:619, Earliness:633, Tardiness:5605, Setup:1086, AOF:7324
Index:620, Earliness:609, Tardiness:5617, Setup:1083, AOF:7309
Index:621, Earliness:600, Tardiness:5654, Setup:1047, AOF:7301
Index:622, Earliness:678, Tardiness:5560, Setup:1101, AOF:7339
Index:623, Earliness:612, Tardiness:6051, Setup:1231, AOF:7894
Index:624, Earliness:744, Tardiness:5715, Setup:1139, AOF:7598
Index:625, Earliness:609, Tardiness:5771, Setup:1058, AOF:7438
Index:626, Earliness:610, Tardiness:5767, Setup:1097, AOF:7474
Index:627, Earliness:487, Tardiness:5917, Setup:1236, AOF:7640
Index:628, Earliness:592, Tardiness:5826, Setup:1043, AOF:7461
Index:629, Earliness:662, Tardiness:5661, Setup:1079, AOF:7402
Index:630, Earliness:682, Tardiness:5554, Setup:1107, AOF:7343
Index:631, Earliness:648, Tardiness:5542, Setup:1153, AOF:7343
Index:632, Earliness:646, Tardiness:5668, Setup:1094, AOF:7408
Index:633, Earliness:601, Tardiness:5700, Setup:1025, AOF:7326
Index:634, Earliness:653, Tardiness:5693, Setup:1098, AOF:7444
Index:635, Earliness:604, Tardiness:5673, Setup:1091, AOF:7368
Index:636, Earliness:510, Tardiness:5693, Setup:1121, AOF:7324
Index:637, Earliness:471, Tardiness:5786, Setup:1216, AOF:7473
Index:638, Earliness:731, Tardiness:5497, Setup:1094, AOF:7322
Index:639, Earliness:732, Tardiness:5923, Setup:1062, AOF:7717
Index:640, Earliness:615, Tardiness:5749, Setup:1202, AOF:7566
Index:641, Earliness:711, Tardiness:5864, Setup:1090, AOF:7665
Index:642, Earliness:582, Tardiness:5936, Setup:1007, AOF:7525
Index:643, Earliness:703, Tardiness:5685, Setup:1046, AOF:7434
Index:644, Earliness:541, Tardiness:5682, Setup:1183, AOF:7406
Index:645, Earliness:724, Tardiness:5677, Setup:1070, AOF:7471
Index:646, Earliness:621, Tardiness:5568, Setup:1006, AOF:7195
Index:647, Earliness:537, Tardiness:5631, Setup:1068, AOF:7236
Index:648, Earliness:626, Tardiness:5785, Setup:1055, AOF:7466
Index:649, Earliness:587, Tardiness:5849, Setup:1104, AOF:7540
Index:650, Earliness:597, Tardiness:5782, Setup:1172, AOF:7551
Index:651, Earliness:637, Tardiness:5972, Setup:1212, AOF:7821
Index:652, Earliness:630, Tardiness:5802, Setup:1138, AOF:7570
Index:653, Earliness:529, Tardiness:5591, Setup:1169, AOF:7289
Index:654, Earliness:552, Tardiness:5670, Setup:1194, AOF:7416
Index:655, Earliness:668, Tardiness:5781, Setup:1063, AOF:7512
Index:656, Earliness:622, Tardiness:5656, Setup:1140, AOF:7418
Index:657, Earliness:581, Tardiness:5807, Setup:1220, AOF:7608
Index:658, Earliness:743, Tardiness:5550, Setup:1255, AOF:7548
Index:659, Earliness:689, Tardiness:5661, Setup:1141, AOF:7491
Index:660, Earliness:588, Tardiness:5818, Setup:1178, AOF:7584
Index:661, Earliness:645, Tardiness:5616, Setup:1057, AOF:7318
Index:662, Earliness:620, Tardiness:5702, Setup:1150, AOF:7472
Index:663, Earliness:636, Tardiness:5676, Setup:1159, AOF:7471
Index:664, Earliness:634, Tardiness:5702, Setup:1047, AOF:7383
Index:665, Earliness:560, Tardiness:5872, Setup:1137, AOF:7569
Index:666, Earliness:664, Tardiness:5632, Setup:1084, AOF:7380
Index:667, Earliness:637, Tardiness:5688, Setup:1009, AOF:7334
Index:668, Earliness:600, Tardiness:6050, Setup:1136, AOF:7786
Index:669, Earliness:608, Tardiness:6018, Setup:1062, AOF:7688
Index:670, Earliness:502, Tardiness:6008, Setup:1187, AOF:7697
Index:671, Earliness:641, Tardiness:5714, Setup:1182, AOF:7537
Index:672, Earliness:686, Tardiness:5661, Setup:1142, AOF:7489
Index:673, Earliness:761, Tardiness:5432, Setup:1141, AOF:7334
Index:674, Earliness:518, Tardiness:5679, Setup:1123, AOF:7320
Index:675, Earliness:648, Tardiness:5635, Setup:1167, AOF:7450
Index:676, Earliness:644, Tardiness:5757, Setup:1166, AOF:7567
Index:677, Earliness:625, Tardiness:5923, Setup:1120, AOF:7668
Index:678, Earliness:604, Tardiness:6023, Setup:1181, AOF:7808
Index:679, Earliness:560, Tardiness:5690, Setup:1083, AOF:7333
Index:680, Earliness:532, Tardiness:5683, Setup:1129, AOF:7344
Index:681, Earliness:626, Tardiness:5745, Setup:1091, AOF:7462
Index:682, Earliness:664, Tardiness:5513, Setup:1058, AOF:7235
Index:683, Earliness:650, Tardiness:5788, Setup:1089, AOF:7527
Index:684, Earliness:549, Tardiness:5672, Setup:1001, AOF:7222
Index:685, Earliness:538, Tardiness:5919, Setup:1082, AOF:7539
Index:686, Earliness:711, Tardiness:5747, Setup:1173, AOF:7631
Index:687, Earliness:610, Tardiness:5935, Setup:1111, AOF:7656
Index:688, Earliness:561, Tardiness:5774, Setup:1217, AOF:7552
Index:689, Earliness:671, Tardiness:5698, Setup:1131, AOF:7500
Index:690, Earliness:654, Tardiness:5611, Setup:1158, AOF:7423
Index:691, Earliness:687, Tardiness:5756, Setup:1181, AOF:7624
Index:692, Earliness:667, Tardiness:5593, Setup:979, AOF:7239
Index:693, Earliness:619, Tardiness:5580, Setup:1128, AOF:7327
Index:694, Earliness:521, Tardiness:5986, Setup:1141, AOF:7648
Index:695, Earliness:704, Tardiness:5836, Setup:1131, AOF:7671
Index:696, Earliness:654, Tardiness:5766, Setup:1116, AOF:7536
Index:697, Earliness:625, Tardiness:5763, Setup:1086, AOF:7474
Index:698, Earliness:711, Tardiness:5779, Setup:1134, AOF:7624
Index:699, Earliness:733, Tardiness:5547, Setup:1173, AOF:7453
Index:700, Earliness:579, Tardiness:5714, Setup:1068, AOF:7361
Index:701, Earliness:523, Tardiness:5780, Setup:1169, AOF:7472
Index:702, Earliness:615, Tardiness:5698, Setup:1111, AOF:7424
Index:703, Earliness:672, Tardiness:5746, Setup:1172, AOF:7590
Index:704, Earliness:665, Tardiness:5771, Setup:1142, AOF:7578
Index:705, Earliness:564, Tardiness:5976, Setup:1149, AOF:7689
Index:706, Earliness:640, Tardiness:5917, Setup:1137, AOF:7694
Index:707, Earliness:692, Tardiness:5609, Setup:1136, AOF:7437
Index:708, Earliness:606, Tardiness:5513, Setup:1142, AOF:7261
Index:709, Earliness:593, Tardiness:5545, Setup:1169, AOF:7307
Index:710, Earliness:679, Tardiness:5670, Setup:1090, AOF:7439
Index:711, Earliness:703, Tardiness:5628, Setup:1047, AOF:7378
Index:712, Earliness:656, Tardiness:5654, Setup:1158, AOF:7468
Index:713, Earliness:632, Tardiness:5644, Setup:1091, AOF:7367
Index:714, Earliness:607, Tardiness:5558, Setup:1132, AOF:7297
Index:715, Earliness:653, Tardiness:5774, Setup:1194, AOF:7621
Index:716, Earliness:592, Tardiness:5910, Setup:1134, AOF:7636
Index:717, Earliness:683, Tardiness:5923, Setup:1120, AOF:7726
Index:718, Earliness:506, Tardiness:5553, Setup:1093, AOF:7152
Index:719, Earliness:604, Tardiness:5960, Setup:1012, AOF:7576
Index:720, Earliness:736, Tardiness:5630, Setup:1176, AOF:7542
Index:721, Earliness:578, Tardiness:5673, Setup:1181, AOF:7432
Index:722, Earliness:592, Tardiness:5888, Setup:1100, AOF:7580
Index:723, Earliness:588, Tardiness:5820, Setup:1061, AOF:7469
Index:724, Earliness:613, Tardiness:5506, Setup:1156, AOF:7275
Index:725, Earliness:547, Tardiness:5910, Setup:1147, AOF:7604
Index:726, Earliness:597, Tardiness:5785, Setup:1066, AOF:7448
Index:727, Earliness:632, Tardiness:5754, Setup:1107, AOF:7493
Index:728, Earliness:655, Tardiness:5951, Setup:1090, AOF:7696
Index:729, Earliness:691, Tardiness:5447, Setup:1148, AOF:7286
Index:730, Earliness:595, Tardiness:5725, Setup:1035, AOF:7355
Index:731, Earliness:567, Tardiness:5725, Setup:1164, AOF:7456
Index:732, Earliness:554, Tardiness:5650, Setup:1159, AOF:7363
Index:733, Earliness:598, Tardiness:5578, Setup:1095, AOF:7271
Index:734, Earliness:628, Tardiness:5719, Setup:1102, AOF:7449
Index:735, Earliness:647, Tardiness:5549, Setup:1160, AOF:7356
Index:736, Earliness:564, Tardiness:5644, Setup:1027, AOF:7235
Index:737, Earliness:466, Tardiness:5803, Setup:1145, AOF:7414
Index:738, Earliness:588, Tardiness:5794, Setup:1156, AOF:7538
Index:739, Earliness:761, Tardiness:5711, Setup:1095, AOF:7567
Index:740, Earliness:503, Tardiness:5865, Setup:1205, AOF:7573
Index:741, Earliness:556, Tardiness:5757, Setup:1066, AOF:7379
Index:742, Earliness:647, Tardiness:5700, Setup:1197, AOF:7544
Index:743, Earliness:509, Tardiness:5796, Setup:1150, AOF:7455
Index:744, Earliness:599, Tardiness:5635, Setup:1116, AOF:7350
Index:745, Earliness:669, Tardiness:5713, Setup:996, AOF:7378
Index:746, Earliness:659, Tardiness:5621, Setup:1119, AOF:7399
Index:747, Earliness:699, Tardiness:5524, Setup:1078, AOF:7301
Index:748, Earliness:716, Tardiness:5664, Setup:1058, AOF:7438
Index:749, Earliness:521, Tardiness:5547, Setup:1124, AOF:7192
